<?xml version="1.0" encoding="utf-8"?>
<!-- Generator: Adobe Illustrator 17.0.0, SVG Export Plug-In . SVG Version: 6.00 Build 0)  -->
<!DOCTYPE svg PUBLIC "-//W3C//DTD SVG 1.1//EN" "http://www.w3.org/Graphics/SVG/1.1/DTD/svg11.dtd">
<svg version="1.1" id="Layer_1" xmlns="http://www.w3.org/2000/svg" xmlns:xlink="http://www.w3.org/1999/xlink" x="0px" y="0px"
	 width="22.875px" height="23.5px" viewBox="286.125 351.667 22.875 23.5" enable-background="new 286.125 351.667 22.875 23.5"
	 xml:space="preserve">
<g id="Ebene_1">
	<polygon fill="none" stroke="#000000" points="286.856,374.386 290.619,358.902 305.671,358.902 308.493,374.386 	"/>
	<path fill="none" stroke="#000000" d="M295.323,363.803v-8.467c0-3.763,5.644-4.233,5.644,0v8.467"/>
</g>
<g id="Ebene_2">
</g>
<g id="Ebene_3">
</g>
<g id="Ebene_4">
</g>
<g id="Ebene_5">
</g>
<g id="Ebene_6">
</g>
</svg>
