<?xml version="1.0" encoding="utf-8"?>
<!-- Generator: Adobe Illustrator 17.0.0, SVG Export Plug-In . SVG Version: 6.00 Build 0)  -->
<!DOCTYPE svg PUBLIC "-//W3C//DTD SVG 1.1//EN" "http://www.w3.org/Graphics/SVG/1.1/DTD/svg11.dtd">
<svg version="1.1" id="Layer_1" xmlns="http://www.w3.org/2000/svg" xmlns:xlink="http://www.w3.org/1999/xlink" x="0px" y="0px"
	 width="206.901px" height="186.927px" viewBox="0 0 206.901 186.927" enable-background="new 0 0 206.901 186.927"
	 xml:space="preserve">
<g>
	<path fill="#2B292A" d="M22.445,80.518h5.172V92.06h13.472V80.518h5.173v27.021h-5.173V96.576H27.617v10.963h-5.172V80.518z"/>
	<path fill="#2B292A" d="M52.94,80.518h5.172v27.021H52.94V80.518z"/>
	<path fill="#2B292A" d="M83.725,82.95c1.866,1.621,2.799,3.912,2.799,6.871c0,3.088-0.933,5.489-2.799,7.2
		c-1.866,1.711-4.497,2.566-7.894,2.566h-5.906v7.952h-5.172V80.518h11.079C79.228,80.518,81.859,81.329,83.725,82.95z
		 M80.058,93.759c1.042-0.849,1.563-2.11,1.563-3.783c0-1.646-0.521-2.882-1.563-3.706c-1.042-0.823-2.542-1.235-4.497-1.235h-5.636
		v9.998h5.636C77.516,95.032,79.016,94.608,80.058,93.759z"/>
	<path fill="#2B292A" d="M103.527,85.498c-1.454-0.463-2.735-0.695-3.841-0.695c-1.235,0-2.213,0.231-2.934,0.695
		c-0.721,0.463-1.081,1.106-1.081,1.93c0,0.747,0.251,1.371,0.753,1.873c0.501,0.501,1.132,0.914,1.891,1.235
		c0.759,0.322,1.795,0.675,3.107,1.062c1.827,0.54,3.326,1.081,4.498,1.621c1.171,0.541,2.168,1.338,2.991,2.394
		c0.823,1.056,1.235,2.445,1.235,4.169c0,1.647-0.443,3.082-1.332,4.304c-0.888,1.223-2.11,2.156-3.667,2.799
		c-1.558,0.644-3.339,0.965-5.346,0.965c-2.11,0-4.169-0.392-6.176-1.177s-3.758-1.834-5.25-3.146l2.162-4.4
		c1.364,1.261,2.896,2.252,4.594,2.973c1.699,0.721,3.281,1.08,4.748,1.08c1.441,0,2.573-0.276,3.397-0.83
		c0.823-0.553,1.235-1.306,1.235-2.258c0-0.772-0.251-1.409-0.753-1.911c-0.501-0.501-1.139-0.907-1.911-1.216
		s-1.828-0.656-3.166-1.042c-1.827-0.54-3.319-1.067-4.478-1.583c-1.158-0.515-2.149-1.293-2.973-2.335
		c-0.824-1.042-1.235-2.413-1.235-4.111c0-1.569,0.418-2.94,1.254-4.111c0.836-1.171,2.02-2.078,3.551-2.722
		c1.531-0.643,3.301-0.965,5.308-0.965c1.75,0,3.479,0.257,5.191,0.772c1.712,0.515,3.236,1.21,4.574,2.084l-2.084,4.517
		C106.403,86.617,104.981,85.961,103.527,85.498z"/>
	<path fill="#2B292A" d="M112.038,80.518h22.042v4.594h-8.415v22.428h-5.212V85.112h-8.415V80.518z"/>
	<path fill="#2B292A" d="M137.747,80.518h19.803v4.517h-14.63v6.678h13.125v4.516H142.92v6.794h15.094v4.517h-20.267V80.518z"/>
	<path fill="#2B292A" d="M180.171,107.539l-4.671-7.99c-0.206,0.025-0.528,0.038-0.965,0.038h-6.1v7.952h-5.173V80.518h11.272
		c3.499,0,6.201,0.811,8.106,2.432c1.904,1.621,2.856,3.912,2.856,6.871c0,2.11-0.457,3.912-1.37,5.405
		c-0.914,1.492-2.246,2.611-3.996,3.357l5.945,8.956H180.171z M168.436,95.032h6.1c1.955,0,3.448-0.425,4.478-1.274
		s1.544-2.11,1.544-3.783c0-1.646-0.515-2.882-1.544-3.706c-1.029-0.823-2.522-1.235-4.478-1.235h-6.1V95.032z"/>
</g>
<g>
	<path fill="#2B292A" d="M69.542,131.705c0.841,0.729,1.261,1.753,1.261,3.07c0,1.376-0.423,2.443-1.27,3.202
		c-0.847,0.759-2.035,1.138-3.564,1.138h-3.07v3.847h-1.694v-12.351h4.764C67.509,130.612,68.7,130.976,69.542,131.705z
		 M68.333,136.884c0.564-0.465,0.847-1.149,0.847-2.056c0-0.882-0.282-1.55-0.847-2.003c-0.565-0.452-1.376-0.679-2.435-0.679
		l-3,0.018v5.417h3C66.957,137.581,67.768,137.349,68.333,136.884z"/>
	<path fill="#2B292A" d="M81.019,142.962l-2.453-3.882c-0.282,0.024-0.511,0.035-0.688,0.035h-3.141v3.847h-1.694v-12.351h4.834
		c1.564,0,2.773,0.361,3.626,1.085c0.853,0.724,1.279,1.75,1.279,3.079c0,1-0.232,1.841-0.697,2.522
		c-0.465,0.683-1.132,1.177-2.002,1.482l2.876,4.182H81.019z M77.878,137.581c1.059,0,1.87-0.232,2.435-0.697
		c0.564-0.465,0.847-1.149,0.847-2.056c0-0.882-0.282-1.55-0.847-2.003c-0.565-0.452-1.376-0.679-2.435-0.679h-3.141v5.435H77.878z"
		/>
	<path fill="#2B292A" d="M85.8,130.612h8.575v1.535h-6.881v3.811h6.158v1.535h-6.158v3.935h7.093v1.535H85.8V130.612z"/>
	<path fill="#2B292A" d="M97.321,130.612h2.012l4.517,8.681l4.481-8.681h2.028v12.351h-1.588l-0.018-9.863l-4.393,8.558h-1.041
		l-4.429-8.558v9.863h-1.57V130.612z"/>
	<path fill="#2B292A" d="M113.889,130.612h1.693v12.351h-1.693V130.612z"/>
	<path fill="#2B292A" d="M121.484,140.589c0.629,0.642,1.496,0.962,2.603,0.962c1.094,0,1.952-0.32,2.575-0.962
		c0.624-0.641,0.936-1.532,0.936-2.673v-7.305h1.693v7.305c0,1.611-0.461,2.876-1.385,3.793c-0.924,0.918-2.196,1.376-3.819,1.376
		c-1.636,0-2.918-0.458-3.847-1.376c-0.93-0.917-1.394-2.182-1.394-3.793v-7.305h1.693v7.305
		C120.54,139.057,120.854,139.948,121.484,140.589z"/>
	<path fill="#2B292A" d="M132.556,130.612h2.011l4.518,8.681l4.481-8.681h2.028v12.351h-1.588l-0.018-9.863l-4.393,8.558h-1.041
		l-4.429-8.558v9.863h-1.57V130.612z"/>
</g>
<g>
	<path fill="#2B292A" d="M82.321,159.312c-0.416,0.374-0.873,0.664-1.371,0.872s-0.992,0.312-1.48,0.312
		c-0.655,0-1.272-0.187-1.854-0.561c-0.582-0.374-1.106-0.914-1.573-1.62h-0.094c-1.049,0-2.013-0.247-2.89-0.74
		c-0.878-0.493-1.571-1.169-2.08-2.025c-0.509-0.857-0.763-1.795-0.763-2.813s0.254-1.95,0.763-2.797s1.2-1.514,2.072-2.002
		s1.838-0.732,2.898-0.732c1.049,0,2.012,0.244,2.89,0.732s1.571,1.155,2.08,2.002s0.764,1.779,0.764,2.797
		c0,0.841-0.174,1.626-0.522,2.353c-0.348,0.728-0.829,1.351-1.441,1.87s-1.314,0.894-2.104,1.121
		c0.686,0.737,1.361,1.106,2.026,1.106c0.602,0,1.288-0.316,2.057-0.95L82.321,159.312z M72.303,154.856
		c0.384,0.644,0.901,1.155,1.55,1.534c0.649,0.38,1.353,0.569,2.111,0.569s1.457-0.189,2.096-0.569
		c0.639-0.379,1.147-0.891,1.527-1.534c0.379-0.645,0.569-1.351,0.569-2.119s-0.19-1.473-0.569-2.111
		c-0.379-0.639-0.888-1.146-1.527-1.52c-0.639-0.373-1.337-0.561-2.096-0.561s-1.462,0.188-2.111,0.561
		c-0.649,0.374-1.166,0.881-1.55,1.52s-0.576,1.343-0.576,2.111S71.918,154.211,72.303,154.856z"/>
	<path fill="#2B292A" d="M86.084,156.11c0.555,0.566,1.322,0.85,2.298,0.85c0.966,0,1.724-0.283,2.275-0.85
		c0.55-0.566,0.826-1.353,0.826-2.36v-6.45h1.496v6.45c0,1.423-0.408,2.54-1.223,3.35c-0.816,0.811-1.94,1.216-3.374,1.216
		c-1.444,0-2.576-0.405-3.396-1.216c-0.821-0.81-1.231-1.927-1.231-3.35v-6.45h1.496v6.45
		C85.25,154.757,85.528,155.543,86.084,156.11z"/>
	<path fill="#2B292A" d="M103.667,158.205l-1.153-2.648h-5.749l-1.137,2.648h-1.574l4.846-10.906h1.558l4.83,10.906H103.667z
		 M97.356,154.201h4.581l-2.306-5.298L97.356,154.201z"/>
	<path fill="#2B292A" d="M106.876,147.299h1.496v9.551h4.768v1.355h-6.264V147.299z"/>
	<path fill="#2B292A" d="M115.04,147.299h1.496v10.906h-1.496V147.299z"/>
	<path fill="#2B292A" d="M118.25,147.299h8.522v1.371h-3.521v9.535h-1.496v-9.535h-3.505V147.299z"/>
	<path fill="#2B292A" d="M136.697,147.299l-4.083,7.167v3.739h-1.495v-3.677l-4.145-7.229h1.526l3.366,5.563l3.303-5.563H136.697z"
		/>
</g>
<g>
	<defs>
		<rect id="SVGID_1_" width="206.901" height="186.927"/>
	</defs>
	<clipPath id="SVGID_2_">
		<use xlink:href="#SVGID_1_"  overflow="visible"/>
	</clipPath>
	<g clip-path="url(#SVGID_2_)">
		<path fill="#2B292A" d="M173.833,126.883c-0.393,1.059-0.814,2.12-1.255,3.156l1.849,0.785c0.452-1.064,0.885-2.155,1.289-3.242
			L173.833,126.883z"/>
	</g>
	<g clip-path="url(#SVGID_2_)">
		<path fill="#2B292A" d="M152.708,157.233l1.314,1.519c0.874-0.756,1.744-1.544,2.586-2.343l-1.381-1.458
			C154.404,155.729,153.557,156.497,152.708,157.233"/>
	</g>
	<g clip-path="url(#SVGID_2_)">
		<path fill="#2B292A" d="M162.133,147.462l1.565,1.26c0.728-0.905,1.442-1.835,2.124-2.767l-1.62-1.186
			C163.537,145.675,162.842,146.581,162.133,147.462"/>
	</g>
	<g clip-path="url(#SVGID_2_)">
		<path fill="#2B292A" d="M147.376,161.444l1.172,1.631c0.94-0.675,1.878-1.382,2.787-2.1l-1.245-1.576
			C149.204,160.098,148.291,160.786,147.376,161.444"/>
	</g>
	<g clip-path="url(#SVGID_2_)">
		<path fill="#2B292A" d="M157.641,152.557l1.446,1.395c0.807-0.836,1.602-1.699,2.365-2.563l-1.507-1.328
			C159.203,150.902,158.427,151.743,157.641,152.557"/>
	</g>
	<g clip-path="url(#SVGID_2_)">
		<path fill="#2B292A" d="M166.145,141.984l1.674,1.111c0.64-0.965,1.267-1.958,1.862-2.95l-1.722-1.033
			C167.379,140.078,166.769,141.044,166.145,141.984"/>
	</g>
	<g clip-path="url(#SVGID_2_)">
		<path fill="#2B292A" d="M54.505,160.059c0.897,0.736,1.821,1.46,2.745,2.151l1.203-1.608c-0.9-0.673-1.8-1.378-2.674-2.096
			L54.505,160.059z"/>
	</g>
	<g clip-path="url(#SVGID_2_)">
		<path fill="#2B292A" d="M169.638,136.16l1.769,0.953c0.549-1.02,1.083-2.067,1.583-3.109l-1.811-0.869
			C170.693,134.148,170.173,135.167,169.638,136.16"/>
	</g>
	<g clip-path="url(#SVGID_2_)">
		<path fill="#2B292A" d="M172.495,56.69l1.847-0.791c-0.456-1.064-0.944-2.133-1.448-3.175l-1.807,0.875
			C171.578,54.614,172.052,55.653,172.495,56.69"/>
	</g>
	<g clip-path="url(#SVGID_2_)">
		<path fill="#2B292A" d="M60.091,164.235c0.96,0.651,1.945,1.288,2.931,1.893l1.05-1.712c-0.959-0.589-1.918-1.209-2.853-1.843
			L60.091,164.235z"/>
	</g>
	<g clip-path="url(#SVGID_2_)">
		<path fill="#2B292A" d="M171.301,49.619c-0.551-1.017-1.135-2.035-1.734-3.028l-1.72,1.038c0.584,0.967,1.151,1.958,1.688,2.948
			L171.301,49.619z"/>
	</g>
	<g clip-path="url(#SVGID_2_)">
		<path fill="#2B292A" d="M116.37,10.596c-1.142-0.183-2.305-0.342-3.457-0.473l-0.227,1.996c1.122,0.127,2.255,0.282,3.367,0.46
			L116.37,10.596z"/>
	</g>
	<g clip-path="url(#SVGID_2_)">
		<path fill="#2B292A" d="M32.553,61.698c0.366-1.064,0.763-2.136,1.179-3.185l-1.867-0.741c-0.428,1.079-0.835,2.179-1.211,3.273
			L32.553,61.698z"/>
	</g>
	<g clip-path="url(#SVGID_2_)">
		<path fill="#2B292A" d="M95.705,11.971l-0.188-2c-1.153,0.109-2.319,0.246-3.465,0.407l0.28,1.989
			C93.448,12.211,94.583,12.077,95.705,11.971"/>
	</g>
	<g clip-path="url(#SVGID_2_)">
		<path fill="#2B292A" d="M82.369,14.473l-0.55-1.932c-1.111,0.317-2.232,0.664-3.332,1.033l0.639,1.904
			C80.195,15.119,81.287,14.781,82.369,14.473"/>
	</g>
	<g clip-path="url(#SVGID_2_)">
		<path fill="#2B292A" d="M39.878,46.418l-1.699-1.071c-0.618,0.98-1.222,1.987-1.792,2.993l1.746,0.992
			C38.689,48.353,39.276,47.373,39.878,46.418"/>
	</g>
	<g clip-path="url(#SVGID_2_)">
		<path fill="#2B292A" d="M36.525,52.323l-1.79-0.91c-0.525,1.032-1.033,2.091-1.509,3.146l1.831,0.826
			C35.52,54.358,36.014,53.328,36.525,52.323"/>
	</g>
	<g clip-path="url(#SVGID_2_)">
		<path fill="#2B292A" d="M49.322,155.396c0.825,0.812,1.68,1.616,2.539,2.39l1.344-1.494c-0.838-0.753-1.67-1.537-2.474-2.328
			L49.322,155.396z"/>
	</g>
	<g clip-path="url(#SVGID_2_)">
		<path fill="#2B292A" d="M123.202,12.012c-1.121-0.287-2.265-0.551-3.4-0.787l-0.408,1.967c1.106,0.229,2.219,0.487,3.309,0.766
			L123.202,12.012z"/>
	</g>
	<g clip-path="url(#SVGID_2_)">
		<path fill="#2B292A" d="M129.872,14.053c-1.089-0.389-2.203-0.758-3.313-1.097l-0.586,1.921c1.079,0.329,2.164,0.689,3.223,1.068
			L129.872,14.053z"/>
	</g>
	<g clip-path="url(#SVGID_2_)">
		<path fill="#2B292A" d="M43.759,40.846l-1.594-1.222c-0.705,0.919-1.397,1.866-2.058,2.816l1.647,1.148
			C42.399,42.663,43.072,41.741,43.759,40.846"/>
	</g>
	<g clip-path="url(#SVGID_2_)">
		<path fill="#2B292A" d="M102.488,11.637l-0.009-2.009c-1.157,0.006-2.33,0.037-3.485,0.093l0.098,2.007
			C100.218,11.674,101.36,11.643,102.488,11.637"/>
	</g>
	<g clip-path="url(#SVGID_2_)">
		<path fill="#2B292A" d="M109.439,9.807c-1.155-0.079-2.328-0.132-3.486-0.159l-0.046,2.009c1.128,0.025,2.27,0.077,3.395,0.154
			L109.439,9.807z"/>
	</g>
	<g clip-path="url(#SVGID_2_)">
		<path fill="#2B292A" d="M58.186,26.526l-1.21-1.603c-0.923,0.696-1.844,1.425-2.736,2.165l1.281,1.546
			C56.391,27.914,57.288,27.205,58.186,26.526"/>
	</g>
	<g clip-path="url(#SVGID_2_)">
		<path fill="#2B292A" d="M148.366,23.721c-0.944-0.674-1.915-1.333-2.885-1.961l-1.091,1.687c0.945,0.61,1.89,1.253,2.81,1.909
			L148.366,23.721z"/>
	</g>
	<g clip-path="url(#SVGID_2_)">
		<path fill="#2B292A" d="M153.852,28.028c-0.88-0.757-1.786-1.502-2.694-2.215l-1.241,1.58c0.884,0.694,1.767,1.42,2.624,2.157
			L153.852,28.028z"/>
	</g>
	<g clip-path="url(#SVGID_2_)">
		<path fill="#2B292A" d="M142.509,19.934c-0.998-0.583-2.025-1.151-3.054-1.688l-0.93,1.78c1,0.523,2,1.075,2.971,1.642
			L142.509,19.934z"/>
	</g>
	<g clip-path="url(#SVGID_2_)">
		<path fill="#2B292A" d="M163.557,38.03c-0.727-0.897-1.485-1.793-2.256-2.662l-1.502,1.333c0.75,0.846,1.489,1.719,2.196,2.593
			L163.557,38.03z"/>
	</g>
	<g clip-path="url(#SVGID_2_)">
		<path fill="#2B292A" d="M157.487,34.21l1.441-1.398c-0.271-0.28-0.545-0.559-0.821-0.834c-0.548-0.548-1.107-1.091-1.665-1.617
			l-1.377,1.462c0.543,0.512,1.089,1.042,1.622,1.575C156.956,33.667,157.222,33.938,157.487,34.21"/>
	</g>
	<g clip-path="url(#SVGID_2_)">
		<path fill="#2B292A" d="M136.328,16.701c-1.049-0.488-2.124-0.959-3.197-1.399l-0.762,1.858c1.044,0.429,2.091,0.887,3.111,1.362
			L136.328,16.701z"/>
	</g>
	<g clip-path="url(#SVGID_2_)">
		<path fill="#2B292A" d="M63.79,22.686l-1.059-1.707c-0.985,0.611-1.968,1.252-2.922,1.906l1.135,1.656
			C61.872,23.905,62.829,23.281,63.79,22.686"/>
	</g>
	<g clip-path="url(#SVGID_2_)">
		<path fill="#2B292A" d="M75.931,16.633l-0.726-1.873c-1.079,0.418-2.164,0.868-3.223,1.336l0.812,1.838
			C73.826,17.478,74.881,17.04,75.931,16.633"/>
	</g>
	<g clip-path="url(#SVGID_2_)">
		<path fill="#2B292A" d="M167.696,43.647c-0.644-0.962-1.318-1.922-2.006-2.855l-1.617,1.191c0.67,0.908,1.327,1.844,1.952,2.78
			L167.696,43.647z"/>
	</g>
	<g clip-path="url(#SVGID_2_)">
		<path fill="#2B292A" d="M52.955,30.86l-1.351-1.487c-0.857,0.778-1.708,1.586-2.53,2.402l1.415,1.425
			C51.29,32.405,52.12,31.618,52.955,30.86"/>
	</g>
	<g clip-path="url(#SVGID_2_)">
		<path fill="#2B292A" d="M69.721,19.378l-0.896-1.798c-1.038,0.517-2.076,1.065-3.086,1.629l0.978,1.754
			C67.701,20.414,68.711,19.881,69.721,19.378"/>
	</g>
	<g clip-path="url(#SVGID_2_)">
		<path fill="#2B292A" d="M48.131,35.648l-1.478-1.361c-0.786,0.853-1.56,1.734-2.304,2.617l1.537,1.293
			C46.61,37.336,47.365,36.479,48.131,35.648"/>
	</g>
	<g clip-path="url(#SVGID_2_)">
		<path fill="#2B292A" d="M88.979,12.917l-0.369-1.974c-1.138,0.213-2.286,0.455-3.413,0.721l0.46,1.955
			C86.754,13.36,87.872,13.125,88.979,12.917"/>
	</g>
	<g clip-path="url(#SVGID_2_)">
		<path fill="#2B292A" d="M44.572,150.286c0.748,0.881,1.528,1.759,2.317,2.608l1.472-1.368c-0.769-0.827-1.529-1.682-2.258-2.54
			L44.572,150.286z"/>
	</g>
	<g clip-path="url(#SVGID_2_)">
		<path fill="#2B292A" d="M35.194,131.843l-1.827,0.834c0.481,1.053,0.993,2.109,1.523,3.14l1.786-0.918
			C36.161,133.896,35.662,132.867,35.194,131.843"/>
	</g>
	<g clip-path="url(#SVGID_2_)">
		<path fill="#2B292A" d="M36.556,138.883c0.576,1.005,1.185,2.009,1.806,2.985l1.694-1.079c-0.605-0.95-1.197-1.928-1.759-2.906
			L36.556,138.883z"/>
	</g>
	<g clip-path="url(#SVGID_2_)">
		<path fill="#2B292A" d="M32.662,125.542l-1.896,0.661c0.38,1.093,0.793,2.192,1.225,3.268l1.864-0.749
			C33.434,127.675,33.033,126.604,32.662,125.542"/>
	</g>
	<g clip-path="url(#SVGID_2_)">
		<path fill="#2B292A" d="M40.303,144.768c0.668,0.949,1.364,1.894,2.071,2.808l1.589-1.23c-0.688-0.89-1.367-1.809-2.017-2.733
			L40.303,144.768z"/>
	</g>
	<g clip-path="url(#SVGID_2_)">
		<path fill="#2B292A" d="M20.235,124.845c3.968,13.812,11.386,26.47,21.828,36.912c16.23,16.232,37.811,25.17,60.765,25.17h1.323
			c22.953,0,44.533-8.938,60.765-25.17c10.442-10.442,17.86-23.1,21.827-36.912h20.159l-6.526-31.053l6.516-31.711h-20.149
			c-3.967-13.811-11.385-26.469-21.827-36.911C148.684,8.939,127.104,0,104.151,0h-1.323C79.874,0,58.293,8.939,42.063,25.17
			c-10.442,10.442-17.86,23.1-21.828,36.911H0.001l7.535,30.596l-7.508,32.168H20.235z M11.077,92.655L6.116,72.514h11.818h1.749
			h1.753h6.274h2.038h155.794h1.752h1.75h12.189L196.859,93.8l4.136,19.678h-11.807h-1.747h-1.738H29.585h-2.039h-6.271h-1.737
			h-1.747H6.216L11.077,92.655z M102.828,3.443h1.323c22.034,0,42.749,8.581,58.33,24.161c9.782,9.783,16.801,21.591,20.673,34.477
			h-6.49c-0.323-0.984-0.662-1.973-1.025-2.943l-1.881,0.704c0.277,0.738,0.527,1.49,0.78,2.239H23.824
			c3.872-12.886,10.89-24.694,20.674-34.477C60.078,12.024,80.793,3.443,102.828,3.443 M22.873,65.525h6.413h2.079h152.74h1.763
			h1.787h15.014l-1.023,4.981h-12.939h-1.759h-1.754H21.784H20.03h-1.759H5.622l-1.228-4.981h14.929h1.787H22.873z M104.151,183.484
			h-1.323c-22.035,0-42.75-8.581-58.33-24.161c-9.784-9.783-16.802-21.591-20.674-34.478h159.33
			c-3.872,12.887-10.891,24.695-20.673,34.478C146.9,174.903,126.185,183.484,104.151,183.484 M184.105,121.402h-6.404h-2.093H31.37
			h-2.082h-6.415H21.11h-1.787H4.367l1.381-5.915h12.358h1.755h1.762H27.9h2.039h147.085h2.046h6.286h1.761h1.755h12.545
			l1.243,5.915h-15.005h-1.787H184.105z"/>
	</g>
	<g clip-path="url(#SVGID_2_)">
		<path fill="#2B292A" d="M91.07,54.008c8.88-0.954,10.628-3.395,12.419-5.272c1.792,1.877,3.539,4.318,12.419,5.272
			c21.018,2.257,15.643-22.721,15.643-22.721c-0.186,4.284-8.194,8.008-15.643,0.931c-4.734-4.497-9.542-3.279-12.419-1.793
			c-2.877-1.486-7.685-2.704-12.419,1.793c-7.449,7.077-15.457,3.353-15.644-0.931C75.426,31.287,70.051,56.265,91.07,54.008"/>
	</g>
</g>
</svg>
