<?xml version="1.0" encoding="utf-8"?>
<!-- Generator: Adobe Illustrator 17.0.0, SVG Export Plug-In . SVG Version: 6.00 Build 0)  -->
<!DOCTYPE svg PUBLIC "-//W3C//DTD SVG 1.1//EN" "http://www.w3.org/Graphics/SVG/1.1/DTD/svg11.dtd">
<svg version="1.1" id="Ebene_1" xmlns="http://www.w3.org/2000/svg" xmlns:xlink="http://www.w3.org/1999/xlink" x="0px" y="0px"
	 width="150.063px" height="101.133px" viewBox="0 0 150.063 101.133" enable-background="new 0 0 150.063 101.133"
	 xml:space="preserve">
<g>
	<g>
		<g>
			<g>
				<path d="M74.052,37.711c-4.496,0-8.724-1.75-11.902-4.93c-5.731-5.731-5.731-15.058,0-20.789L74.052,0.09l11.902,11.902
					c5.731,5.731,5.731,15.058,0,20.789C82.775,35.96,78.548,37.711,74.052,37.711z M74.052,2.937L63.573,13.416
					c-4.946,4.946-4.946,12.995,0,17.941c2.799,2.799,6.52,4.34,10.479,4.34c3.958,0,7.68-1.542,10.479-4.34
					c4.946-4.946,4.946-12.995,0-17.941L74.052,2.937z"/>
			</g>
		</g>
		<g>
			<g>
				<polygon points="64.851,34.059 63.427,32.635 74.052,22.01 84.676,32.635 83.252,34.059 74.052,24.858 				"/>
			</g>
		</g>
		<g>
			<g>
				<polygon points="86.4,30.912 74.052,18.565 61.704,30.912 60.28,29.488 74.052,15.717 87.823,29.488 				"/>
			</g>
		</g>
		<g>
			<g>
				<polygon points="59.971,26.411 58.547,24.988 74.052,9.483 89.549,24.981 88.125,26.405 74.052,12.331 				"/>
			</g>
		</g>
		<g>
			<g>
				<rect x="73.045" y="1.514" width="2.014" height="9.278"/>
			</g>
		</g>
		<g>
			<g>
				<rect x="73.045" y="23.434" width="2.014" height="12.873"/>
			</g>
		</g>
	</g>
	<g>
		<g>
			<g>
				<path d="M74.052,73.727L62.15,61.825c-2.776-2.776-4.306-6.468-4.306-10.395c0-3.926,1.529-7.618,4.306-10.395
					c3.179-3.179,7.406-4.93,11.902-4.93s8.723,1.751,11.902,4.93c2.776,2.776,4.306,6.468,4.306,10.395
					c0,3.927-1.529,7.619-4.306,10.395L74.052,73.727z M74.052,38.119c-3.959,0-7.68,1.542-10.479,4.34
					c-2.396,2.396-3.716,5.582-3.716,8.971c0,3.389,1.319,6.575,3.716,8.971l10.479,10.478L84.53,60.401
					c2.396-2.396,3.716-5.582,3.716-8.971c0-3.389-1.319-6.575-3.716-8.971C81.732,39.66,78.01,38.119,74.052,38.119z"/>
			</g>
		</g>
		<g>
			<g>
				<polygon points="74.052,51.807 63.427,41.182 64.851,39.758 74.052,48.959 83.252,39.758 84.676,41.182 				"/>
			</g>
		</g>
		<g>
			<g>
				<polygon points="74.052,58.1 60.28,44.328 61.704,42.905 74.052,55.252 86.4,42.905 87.823,44.328 				"/>
			</g>
		</g>
		<g>
			<g>
				<polygon points="74.052,64.334 58.554,48.836 59.978,47.412 74.052,61.486 88.132,47.406 89.556,48.829 				"/>
			</g>
		</g>
		<g>
			<g>
				<rect x="73.045" y="63.025" width="2.014" height="9.278"/>
			</g>
		</g>
		<g>
			<g>
				<rect x="73.045" y="37.51" width="2.014" height="12.873"/>
			</g>
		</g>
	</g>
	<g>
		<g>
			<g>
				<path d="M88.573,53.117c-3.927,0-7.618-1.529-10.395-4.306c-3.18-3.18-4.931-7.406-4.931-11.902s1.751-8.723,4.931-11.902
					c2.776-2.776,6.468-4.306,10.395-4.306s7.618,1.529,10.395,4.306l11.902,11.902L98.968,48.811
					C96.192,51.587,92.5,53.117,88.573,53.117z M88.573,22.714c-3.389,0-6.574,1.319-8.971,3.716
					c-2.799,2.799-4.341,6.52-4.341,10.479c0,3.958,1.542,7.68,4.341,10.479c2.396,2.396,5.582,3.716,8.971,3.716
					s6.574-1.319,8.971-3.716l10.479-10.479L97.544,26.43C95.148,24.034,91.962,22.714,88.573,22.714z"/>
			</g>
		</g>
		<g>
			<g>
				<polygon points="78.325,47.533 76.902,46.109 86.103,36.909 76.902,27.707 78.325,26.284 88.95,36.909 				"/>
			</g>
		</g>
		<g>
			<g>
				<polygon points="81.472,50.68 80.048,49.256 92.396,36.909 80.048,24.561 81.472,23.137 95.243,36.909 				"/>
			</g>
		</g>
		<g>
			<g>
				<polygon points="85.98,52.406 84.556,50.982 98.629,36.909 84.549,22.828 85.973,21.404 101.477,36.909 				"/>
			</g>
		</g>
		<g>
			<g>
				<rect x="100.168" y="35.902" width="9.278" height="2.014"/>
			</g>
		</g>
		<g>
			<g>
				<rect x="74.654" y="35.902" width="12.873" height="2.014"/>
			</g>
		</g>
	</g>
	<g>
		<g>
			<g>
				<path d="M59.529,53.117c-3.927,0-7.618-1.529-10.395-4.306L37.233,36.909l11.902-11.902c2.776-2.776,6.468-4.306,10.395-4.306
					s7.618,1.529,10.395,4.306c3.18,3.179,4.931,7.406,4.931,11.902s-1.751,8.723-4.931,11.902
					C67.148,51.587,63.456,53.117,59.529,53.117z M40.08,36.909l10.479,10.479c2.396,2.396,5.582,3.716,8.971,3.716
					s6.574-1.319,8.971-3.716c2.799-2.799,4.341-6.521,4.341-10.479c0-3.958-1.542-7.68-4.341-10.479
					c-2.396-2.396-5.582-3.716-8.971-3.716s-6.574,1.319-8.971,3.716L40.08,36.909z"/>
			</g>
		</g>
		<g>
			<g>
				<polygon points="69.779,47.533 59.154,36.909 69.779,26.284 71.202,27.707 62.001,36.909 71.202,46.109 				"/>
			</g>
		</g>
		<g>
			<g>
				<polygon points="66.632,50.68 52.861,36.909 66.632,23.137 68.056,24.561 55.708,36.909 68.056,49.256 				"/>
			</g>
		</g>
		<g>
			<g>
				<polygon points="62.131,52.413 46.626,36.909 62.124,21.411 63.548,22.835 49.474,36.909 63.555,50.989 				"/>
			</g>
		</g>
		<g>
			<g>
				<rect x="38.656" y="35.902" width="9.279" height="2.014"/>
			</g>
		</g>
		<g>
			<g>
				<rect x="60.577" y="35.902" width="12.873" height="2.014"/>
			</g>
		</g>
	</g>
</g>
<g>
	<g>
		<path d="M13.711,100.663c0.967-0.083,1.934-0.193,2.79-0.387c-0.497-1.438-2.459-7.296-2.901-8.097
			c-0.967,0-5.36,0.193-6.383,0.359c-0.166,0.387-1.658,5.609-1.935,7.737c0.69,0.193,1.603,0.304,2.376,0.387l0.111,0.58
			c-0.857-0.055-3.372-0.11-4.173-0.11c-0.719,0-2.57,0.056-3.206,0.11l0.083-0.58c0.802-0.083,1.631-0.221,2.377-0.387
			c0.995-1.741,6.494-16.608,6.881-17.658c-0.608-0.166-1.521-0.276-2.184-0.359l-0.027-0.58c0.829,0.056,3.123,0.11,3.593,0.11
			c1.16,0,3.924-0.055,4.725-0.11l-0.083,0.58c-0.718,0.083-1.464,0.193-2.1,0.359c0.331,1.216,1.852,5.555,2.901,8.456
			c0.773,2.128,2.487,6.771,3.758,9.202c0.802,0.166,1.604,0.276,2.433,0.387l0.082,0.58c-0.331-0.055-3.122-0.11-4.587-0.11
			c-0.801,0-3.924,0.056-4.67,0.11L13.711,100.663z M10.588,83.088h-0.056c-0.856,2.46-2.652,7.24-2.929,8.152l5.803,0.11
			C12.799,89.527,11.058,84.608,10.588,83.088z"/>
	</g>
	<g>
		<path d="M26.062,89.472c0-0.995-0.027-6.301-0.139-6.826c-0.47-0.11-2.349-0.276-2.956-0.331l-0.083-0.58l5.969-0.028
			c2.625,0,5.913,0.028,7.793,0.774c1.464,0.58,2.376,1.63,2.376,3.149c0,1.741-1.769,4.035-3.896,5.224
			c0.304,0.69,4.753,7.931,7.627,10.97l-1.216,0.193c-1.935-0.884-9.285-9.367-9.727-9.947c-1.051,0.083-2.184,0.165-2.653,0.165
			v0.719c0,1.796,0.056,6.052,0.139,7.323c0.47,0.138,2.293,0.331,2.901,0.387l0.11,0.58c-0.69-0.055-3.481-0.11-4.753-0.11
			c-1.133,0-4.034,0.056-4.67,0.11l0.11-0.58c0.387-0.027,2.155-0.193,2.929-0.387c0.111-0.802,0.139-6.218,0.139-9.119V89.472z
			 M29.156,91.378c0.995,0,2.184-0.083,3.371-0.524c1.188-0.442,3.15-1.714,3.15-4.449c0-1.769-1.603-3.924-6.383-3.924
			c-0.083,1.133-0.139,6.079-0.139,8.041V91.378z"/>
	</g>
	<g>
		<path d="M50.434,89.72c0-2.045-0.056-6.135-0.139-6.77c-4.421,0-6.411,0.69-7.157,1.16c-0.221,0.608-0.387,1.686-0.553,2.598
			l-0.636,0.166c0.111-1.326,0.442-4.781,0.415-6.964L43,80.021c0.027,0.359,0.083,1.216,0.165,1.796
			c0.442,0.083,5.195,0.276,8.926,0.276c4.007,0,8.788-0.193,9.23-0.276c0.11-0.331,0.275-1.188,0.387-1.713l0.69-0.11
			c-0.166,0.636-0.802,6.301-0.884,7.129l-0.636-0.165c0.055-1.105,0.083-2.238,0.055-2.847c-0.69-0.553-4.531-1.16-7.212-1.16
			c-0.083,0.746-0.139,4.78-0.139,6.77v1.244c0,2.432,0.056,7.102,0.139,9.313c0.525,0.083,3.04,0.331,3.564,0.387l0.11,0.58
			c-0.663-0.055-3.896-0.11-5.416-0.11c-1.243,0-4.56,0.056-5.36,0.11l0.138-0.58c0.636-0.056,2.874-0.304,3.537-0.387
			c0.083-2.155,0.139-6.908,0.139-9.313V89.72z"/>
	</g>
	<g>
		<path d="M83.534,87.261c0,3.73-3.095,5.831-6.798,5.831c-0.801,0-1.686,0-2.459-0.028v3.454c0,1.161,0.138,2.543,0.193,2.93
			l2.598,0.193l-0.193,1.63c0,0-1.935-0.138-4.146-0.138c-0.553,0-3.261,0.138-3.261,0.138l-0.138-1.381l2.183-0.442
			c0.056-0.359,0.249-1.631,0.249-2.101v-11.91c0-0.47-0.193-1.74-0.249-2.1l-2.128-0.332l0.139-1.492c0,0,1.796,0.11,2.735,0.139
			c1.492-0.028,3.813-0.276,5.112-0.276C81.186,81.375,83.534,83.337,83.534,87.261z M74.278,91.6
			c0.719,0.055,1.409,0.11,1.906,0.11c2.874,0,4.753-1.465,4.753-4.449s-1.851-4.504-4.725-4.504c-0.359,0-1.022,0.055-1.741,0.138
			c-0.083,0.719-0.193,2.404-0.193,3.371V91.6z"/>
	</g>
	<g>
		<path d="M99.644,87.095c0,2.708-1.686,4.532-4.034,5.306c1.354,2.598,2.764,4.892,2.93,5.112c0.248,0.415,0.911,1.326,1.354,1.935
			l1.989,0.193l-0.193,1.63c0,0-2.155-0.138-4.366-0.138c0,0-1.16-2.542-1.52-3.205l-2.708-5.112h-0.193
			c-0.802,0-1.686,0-2.432-0.028v3.73c0,1.161,0.138,2.543,0.193,2.93l2.487,0.193l-0.193,1.63c0,0-1.824-0.138-4.035-0.138
			c-0.553,0-3.261,0.138-3.261,0.138l-0.138-1.381l2.183-0.442c0.056-0.359,0.249-1.631,0.249-2.101v-11.91
			c0-0.441-0.193-1.713-0.249-2.1l-2.128-0.332l0.139-1.492c0,0,1.852,0.083,2.763,0.139c1.493-0.056,3.786-0.276,5.058-0.276
			C97.322,81.375,99.644,83.282,99.644,87.095z M90.691,82.922c-0.11,0.691-0.221,2.128-0.221,3.344v5.058
			c0.69,0.055,1.382,0.11,1.879,0.11c2.847,0,4.698-1.409,4.698-4.312c0-2.901-1.824-4.365-4.671-4.365
			C92.045,82.757,91.382,82.839,90.691,82.922z"/>
	</g>
	<g>
		<path d="M110.834,83.144l-2.155,0.193c-0.055,0.387-0.193,1.769-0.193,2.929v10.252c0,1.161,0.139,2.543,0.193,2.93l2.487,0.193
			l-0.193,1.63c0,0-1.824-0.138-4.034-0.138c-0.553,0-3.262,0.138-3.262,0.138l-0.138-1.381l2.183-0.442
			c0.056-0.359,0.249-1.631,0.249-2.101v-11.91c0-0.47-0.193-1.74-0.249-2.1l-2.127-0.332l0.138-1.492c0,0,2.653,0.139,3.206,0.139
			c2.21,0,3.785-0.139,3.785-0.139L110.834,83.144z"/>
	</g>
	<g>
		<path d="M132.858,82.978l-2.183,0.442c-0.11,0.524-0.415,2.017-0.415,3.122v6.384c0,1.105-0.027,8.4-0.027,8.4h-1.658
			l-10.888-15.558v10.749c0,1.161,0.139,2.543,0.193,2.93l2.238,0.193l-0.193,1.63c0,0-1.188-0.138-3.398-0.138
			c-0.553,0-2.984,0.138-2.984,0.138l-0.139-1.381l2.184-0.442c0.055-0.359,0.248-1.631,0.248-2.101v-11.91
			c0-0.441-0.193-1.686-0.248-2.1l-2.211-0.332l0.138-1.492c0,0,2.653,0.139,3.206,0.139l1.216-0.028l0.553,0.581
			c0,0,2.266,3.675,2.681,4.283l7.239,10.142V85.713c0-0.441-0.165-1.796-0.248-2.293l-2.184-0.166l0.166-1.658l2.266,0.056
			c2.184,0,4.312-0.139,4.312-0.139L132.858,82.978z"/>
	</g>
	<g>
		<path d="M147.834,85.99c-0.056-0.441-0.193-1.299-0.305-1.713c-0.027-0.193-0.276-0.58-0.553-0.939
			c-0.607-0.056-1.464-0.139-2.238-0.139h-1.796c-0.055,0.553-0.193,2.018-0.193,3.067v10.252c0,1.161,0.139,2.543,0.193,2.93
			l2.487,0.193l-0.193,1.63c0,0-1.824-0.138-4.035-0.138c-0.552,0-3.261,0.138-3.261,0.138l-0.138-1.381l2.183-0.442
			c0.056-0.359,0.249-1.631,0.249-2.101v-11.91c0-0.414-0.193-1.713-0.249-2.238h-1.74c-0.774,0-1.631,0.083-2.238,0.139
			c-0.276,0.359-0.525,0.746-0.553,0.939c-0.11,0.414-0.249,1.271-0.305,1.713l-1.603-0.138l0.193-3.979l0.525-0.497
			c0,0,2.598,0.276,3.15,0.276h8.151c0.553,0,3.15-0.276,3.15-0.276l0.525,0.497l0.193,3.979L147.834,85.99z"/>
	</g>
</g>
</svg>
