<?xml version="1.0" encoding="utf-8"?>
<!-- Generator: Adobe Illustrator 17.0.0, SVG Export Plug-In . SVG Version: 6.00 Build 0)  -->
<!DOCTYPE svg PUBLIC "-//W3C//DTD SVG 1.1//EN" "http://www.w3.org/Graphics/SVG/1.1/DTD/svg11.dtd">
<svg version="1.1" id="Layer_1" xmlns="http://www.w3.org/2000/svg" xmlns:xlink="http://www.w3.org/1999/xlink" x="0px" y="0px"
	 width="215.836px" height="170.566px" viewBox="0 0 215.836 170.566" enable-background="new 0 0 215.836 170.566"
	 xml:space="preserve">
<g>
	<path fill="#2B292A" d="M30.429,63.504h6.28l5.168,27.678l4.878-27.678h6.424l-7.874,39.126h-7.004L30.429,63.504z"/>
	<path fill="#2B292A" d="M57.382,63.504h7.052v39.126h-7.052V63.504z"/>
	<path fill="#2B292A" d="M70.472,63.504h4.976l9.516,22.316V63.504h5.893v39.126h-4.734l-9.564-23.379v23.379h-6.086V63.504z"/>
	<path fill="#2B292A" d="M100.71,68.77h-6.231v-5.265h19.466v5.265h-6.086v33.861h-7.149V68.77z"/>
	<path fill="#2B292A" d="M123.219,63.504h7.632l7.825,39.126h-6.617l-1.546-9.033h-6.811l-1.594,9.033h-6.715L123.219,63.504z
		 M129.74,89.057l-2.657-16.423l-2.656,16.423H129.74z"/>
	<path fill="#2B292A" d="M144.351,99.709c-1.626-2.303-2.439-5.628-2.439-9.976V76.595c0-4.476,0.837-7.849,2.512-10.12
		c1.674-2.27,4.557-3.405,8.646-3.405c3.864,0,6.634,0.958,8.309,2.874c1.674,1.917,2.512,4.758,2.512,8.525v2.029h-6.811v-2.222
		c0-1.417-0.09-2.543-0.267-3.381c-0.177-0.837-0.548-1.481-1.11-1.932c-0.563-0.451-1.409-0.676-2.536-0.676
		c-1.191,0-2.077,0.29-2.656,0.87c-0.58,0.58-0.959,1.321-1.136,2.222c-0.177,0.902-0.266,2.077-0.266,3.526v16.375
		c0,2.223,0.298,3.881,0.894,4.976s1.715,1.643,3.357,1.643c1.609,0,2.729-0.58,3.357-1.739s0.941-2.898,0.941-5.217V87.27h-4.202
		v-4.492h10.627v19.853h-4.638l-0.482-3.816c-1.225,2.898-3.43,4.348-6.618,4.348C148.642,103.162,145.977,102.01,144.351,99.709z"
		/>
	<path fill="#2B292A" d="M169.541,63.504h16.424v5.024h-9.323v11.254h7.343v4.976h-7.343v12.993h9.42v4.879h-16.521V63.504z"/>
</g>
<g>
	<path fill="#2B292A" d="M59.858,124.765c-0.94,0-1.699-0.248-2.276-0.744c-0.578-0.495-0.866-1.142-0.866-1.938
		c0-0.438,0.066-0.873,0.198-1.305c0.132-0.431,0.28-0.841,0.445-1.231c0.165-0.39,0.313-0.747,0.445-1.072
		c0.132-0.325,0.198-0.602,0.198-0.829c0-0.472-0.182-0.707-0.544-0.707c-0.429,0-0.866,0.175-1.312,0.524s-0.846,0.845-1.2,1.487
		c-0.354,0.642-0.643,1.414-0.866,2.316s-0.334,1.906-0.334,3.011c0,0.146-0.029,0.265-0.087,0.354
		c-0.058,0.09-0.177,0.135-0.358,0.135c-0.248,0-0.512-0.024-0.792-0.073c-0.281-0.049-0.544-0.126-0.792-0.231
		c-0.248-0.105-0.45-0.244-0.606-0.415c-0.156-0.171-0.235-0.369-0.235-0.598c0-0.683,0.091-1.548,0.272-2.597
		c0.182-1.048,0.445-2.161,0.792-3.341c0.346-1.178,0.758-2.36,1.237-3.548c0.479-1.186,1.015-2.255,1.608-3.206
		s1.237-1.723,1.93-2.316c0.693-0.593,1.427-0.89,2.202-0.89c0.28,0,0.553,0.069,0.816,0.207s0.503,0.316,0.718,0.536
		c0.214,0.22,0.383,0.455,0.507,0.707c0.124,0.253,0.186,0.484,0.186,0.695c0,0.504-0.166,1.085-0.495,1.743
		c-0.33,0.658-0.697,1.289-1.101,1.89c-0.404,0.602-0.779,1.118-1.125,1.549c-0.347,0.431-0.544,0.67-0.594,0.719
		c0.016-0.016,0.086-0.057,0.21-0.121c0.124-0.065,0.276-0.135,0.458-0.208c0.181-0.073,0.392-0.138,0.631-0.194
		c0.239-0.058,0.491-0.086,0.754-0.086c0.182,0,0.367,0.049,0.557,0.146s0.359,0.228,0.507,0.39
		c0.148,0.163,0.272,0.342,0.371,0.537c0.099,0.195,0.148,0.398,0.148,0.609c0,0.374-0.083,0.784-0.247,1.231
		c-0.165,0.447-0.347,0.91-0.544,1.39c-0.198,0.479-0.38,0.968-0.544,1.463c-0.165,0.496-0.248,0.979-0.248,1.451
		c0,0.276,0.07,0.5,0.21,0.671c0.14,0.17,0.334,0.256,0.582,0.256c0.33,0,0.656-0.105,0.977-0.317
		c0.322-0.211,0.606-0.455,0.854-0.731c0.297-0.293,0.569-0.642,0.817-1.049c0.016-0.048,0.058-0.105,0.124-0.17
		c0.033-0.032,0.083-0.069,0.148-0.11c0.066-0.04,0.14-0.061,0.223-0.061c0.132,0,0.251,0.049,0.359,0.146
		c0.107,0.098,0.161,0.211,0.161,0.341c0,0.065-0.012,0.126-0.037,0.184c-0.025,0.057-0.054,0.117-0.086,0.183
		c-0.033,0.065-0.066,0.138-0.099,0.22c-0.363,0.568-0.767,1.072-1.212,1.512c-0.379,0.374-0.829,0.715-1.348,1.023
		S60.468,124.765,59.858,124.765z M59.933,109.671c0-0.325-0.157-0.487-0.47-0.487c-0.231,0-0.507,0.19-0.829,0.572
		c-0.321,0.383-0.668,0.911-1.039,1.585c-0.371,0.675-0.759,1.476-1.163,2.402c-0.405,0.927-0.804,1.935-1.2,3.023
		c0.28-0.228,0.594-0.528,0.94-0.902c0.346-0.374,0.692-0.78,1.039-1.219c0.346-0.439,0.684-0.902,1.014-1.391
		c0.33-0.487,0.619-0.954,0.866-1.401s0.449-0.861,0.606-1.244C59.854,110.228,59.933,109.916,59.933,109.671z"/>
	<path fill="#2B292A" d="M66.143,122.205c0,0.276,0.07,0.5,0.21,0.671c0.14,0.17,0.334,0.256,0.582,0.256
		c0.33,0,0.656-0.105,0.978-0.317c0.321-0.211,0.606-0.455,0.854-0.731c0.297-0.293,0.569-0.642,0.816-1.049
		c0.016-0.048,0.058-0.105,0.124-0.17c0.033-0.032,0.083-0.069,0.148-0.11c0.066-0.04,0.14-0.061,0.223-0.061
		c0.132,0,0.251,0.049,0.359,0.146c0.107,0.098,0.161,0.211,0.161,0.341c0,0.065-0.012,0.126-0.037,0.184
		c-0.024,0.057-0.054,0.117-0.086,0.183c-0.033,0.065-0.066,0.138-0.099,0.22c-0.363,0.568-0.767,1.072-1.212,1.512
		c-0.379,0.374-0.829,0.715-1.348,1.023s-1.085,0.464-1.695,0.464c-0.94,0-1.699-0.248-2.276-0.744
		c-0.577-0.495-0.866-1.142-0.866-1.938c0-0.438,0.074-0.967,0.223-1.585c0.148-0.617,0.321-1.243,0.52-1.877
		c0.198-0.635,0.408-1.235,0.631-1.805s0.408-1.024,0.557-1.365c0.066-0.13,0.157-0.24,0.272-0.33
		c0.115-0.089,0.248-0.134,0.396-0.134c0.181,0,0.387,0.058,0.619,0.171c0.231,0.114,0.445,0.244,0.643,0.39
		c0.198,0.146,0.363,0.297,0.495,0.451c0.132,0.155,0.198,0.281,0.198,0.378c0,0.375-0.074,0.776-0.223,1.207
		c-0.148,0.432-0.309,0.891-0.482,1.378s-0.33,1.004-0.47,1.549S66.143,121.62,66.143,122.205z M69.705,110.476
		c0,0.325-0.054,0.638-0.161,0.938c-0.107,0.301-0.256,0.569-0.445,0.805c-0.19,0.236-0.404,0.423-0.644,0.561
		c-0.239,0.139-0.491,0.208-0.754,0.208c-0.363,0-0.677-0.122-0.94-0.366s-0.396-0.585-0.396-1.024c0-0.309,0.058-0.609,0.173-0.901
		c0.115-0.293,0.268-0.557,0.458-0.793c0.189-0.235,0.408-0.423,0.655-0.561c0.248-0.138,0.511-0.207,0.792-0.207
		c0.363,0,0.664,0.121,0.903,0.365S69.705,110.07,69.705,110.476z"/>
	<path fill="#2B292A" d="M81.878,121.766c-0.281,0.406-0.635,0.756-1.064,1.048c-0.363,0.276-0.813,0.521-1.349,0.731
		c-0.536,0.212-1.167,0.317-1.893,0.317c-0.116,0-0.239-0.004-0.371-0.013c-0.132-0.008-0.264-0.02-0.396-0.036
		c-0.379,0.293-0.792,0.524-1.237,0.695c-0.445,0.17-0.915,0.256-1.41,0.256c-0.396,0-0.747-0.062-1.051-0.184
		c-0.306-0.121-0.565-0.264-0.779-0.427c-0.248-0.179-0.462-0.39-0.644-0.634c-0.148,0.358-0.301,0.834-0.458,1.427
		c-0.157,0.593-0.301,1.223-0.433,1.89c-0.132,0.666-0.239,1.325-0.322,1.976c-0.083,0.649-0.124,1.21-0.124,1.682
		c0,0.357-0.157,0.537-0.47,0.537c-0.231,0-0.478-0.029-0.742-0.086c-0.264-0.057-0.507-0.15-0.73-0.28s-0.408-0.309-0.557-0.536
		s-0.223-0.504-0.223-0.829c0-0.293,0.058-0.752,0.173-1.378s0.264-1.345,0.445-2.158c0.182-0.813,0.396-1.686,0.643-2.621
		c0.248-0.935,0.499-1.861,0.755-2.779c0.255-0.918,0.511-1.784,0.767-2.597c0.256-0.813,0.491-1.504,0.706-2.073
		c0.132-0.309,0.362-0.463,0.692-0.463c0.182,0,0.417,0.073,0.706,0.22c0.288,0.146,0.622,0.512,1.002,1.097
		c0.346-0.292,0.701-0.553,1.064-0.78c0.313-0.195,0.655-0.374,1.026-0.536c0.372-0.162,0.747-0.244,1.126-0.244
		c0.445,0,0.849,0.094,1.212,0.28c0.363,0.188,0.672,0.427,0.928,0.72c0.255,0.293,0.458,0.618,0.606,0.976s0.223,0.715,0.223,1.072
		c0,0.683-0.153,1.447-0.458,2.292c-0.305,0.846-0.738,1.626-1.299,2.341c0.049,0.017,0.124,0.024,0.223,0.024
		c0.429,0,0.816-0.085,1.163-0.256c0.346-0.171,0.651-0.361,0.915-0.573c0.297-0.243,0.577-0.52,0.841-0.829
		c0.016-0.048,0.058-0.105,0.124-0.17c0.033-0.032,0.082-0.069,0.148-0.11c0.065-0.04,0.14-0.061,0.223-0.061
		c0.132,0,0.251,0.049,0.358,0.146s0.161,0.211,0.161,0.341c0,0.065-0.013,0.126-0.037,0.184c-0.025,0.057-0.054,0.117-0.087,0.183
		S81.911,121.684,81.878,121.766z M72.328,121.546c0,0.472,0.124,0.902,0.371,1.292c0.247,0.391,0.577,0.585,0.989,0.585
		c0.264,0,0.536-0.121,0.817-0.365c-0.083-0.113-0.124-0.228-0.124-0.342c0-0.13,0.045-0.264,0.136-0.402
		c0.09-0.138,0.198-0.264,0.322-0.378c0.124-0.113,0.255-0.211,0.396-0.292s0.26-0.122,0.359-0.122
		c0.165-0.325,0.313-0.662,0.445-1.012c0.132-0.35,0.243-0.691,0.334-1.024s0.161-0.642,0.21-0.927
		c0.049-0.284,0.074-0.524,0.074-0.719c0-0.439-0.07-0.748-0.21-0.927s-0.351-0.269-0.631-0.269c-0.33,0-0.693,0.175-1.088,0.524
		c-0.396,0.35-0.776,0.776-1.138,1.28c-0.363,0.504-0.664,1.036-0.903,1.597S72.328,121.107,72.328,121.546z"/>
	<path fill="#2B292A" d="M91.998,121.766c-0.413,0.602-0.949,1.13-1.608,1.584c-0.561,0.407-1.283,0.772-2.165,1.098
		c-0.883,0.325-1.959,0.487-3.229,0.487c-0.61,0-1.188-0.117-1.732-0.354c-0.544-0.235-1.019-0.532-1.423-0.89
		s-0.726-0.747-0.965-1.17c-0.239-0.423-0.358-0.813-0.358-1.171s0.124-0.658,0.371-0.902c0.247-0.243,0.52-0.446,0.816-0.609
		c0.346-0.179,0.742-0.325,1.188-0.438c0.099-0.163,0.231-0.366,0.396-0.61c0.132-0.211,0.305-0.476,0.52-0.792
		c0.214-0.317,0.461-0.695,0.742-1.134c0.577-0.861,1.072-1.459,1.484-1.792c0.412-0.333,0.775-0.5,1.089-0.5
		c0.132,0,0.268,0.036,0.408,0.109c0.14,0.073,0.272,0.158,0.396,0.256c0.124,0.098,0.223,0.195,0.297,0.293
		s0.111,0.179,0.111,0.244c0,0.081-0.033,0.183-0.099,0.305c-0.066,0.121-0.136,0.252-0.21,0.39
		c-0.074,0.139-0.14,0.285-0.198,0.439c-0.058,0.154-0.086,0.313-0.086,0.475c0,0.488,0.049,0.911,0.148,1.269
		c0.099,0.357,0.21,0.694,0.334,1.012c0.124,0.317,0.235,0.626,0.334,0.927c0.099,0.301,0.148,0.638,0.148,1.012
		c0,0.325-0.029,0.598-0.087,0.817c-0.058,0.219-0.128,0.41-0.21,0.572c-0.083,0.18-0.173,0.334-0.272,0.464
		c0.479-0.13,0.911-0.313,1.299-0.549c0.387-0.235,0.713-0.467,0.977-0.695c0.297-0.276,0.561-0.568,0.792-0.878
		c0.016-0.048,0.058-0.105,0.124-0.17c0.033-0.032,0.083-0.069,0.148-0.11c0.066-0.04,0.14-0.061,0.223-0.061
		c0.132,0,0.251,0.049,0.359,0.146c0.107,0.098,0.161,0.211,0.161,0.341c0,0.065-0.012,0.126-0.037,0.184
		c-0.025,0.057-0.054,0.117-0.086,0.183C92.063,121.612,92.03,121.684,91.998,121.766z M85.021,118.01
		c-0.347,0.521-0.652,0.992-0.916,1.414c-0.231,0.375-0.441,0.724-0.631,1.049c-0.19,0.325-0.285,0.528-0.285,0.609
		c0,0.358,0.021,0.704,0.062,1.037c0.041,0.333,0.111,0.63,0.21,0.89c0.099,0.26,0.223,0.468,0.372,0.622
		c0.148,0.154,0.338,0.231,0.569,0.231c0.379,0,0.705-0.203,0.977-0.609c0.272-0.406,0.409-0.886,0.409-1.439
		c0-0.309-0.042-0.634-0.124-0.975c-0.083-0.342-0.169-0.679-0.26-1.013c-0.091-0.332-0.177-0.658-0.26-0.975
		C85.062,118.535,85.021,118.254,85.021,118.01z"/>
	<path fill="#2B292A" d="M95.288,123.131c0.33,0,0.656-0.105,0.977-0.317c0.322-0.211,0.606-0.455,0.854-0.731
		c0.297-0.293,0.569-0.642,0.817-1.049c0.016-0.048,0.058-0.105,0.124-0.17c0.033-0.032,0.083-0.069,0.148-0.11
		c0.066-0.04,0.14-0.061,0.223-0.061c0.132,0,0.251,0.049,0.359,0.146c0.107,0.098,0.161,0.211,0.161,0.341
		c0,0.065-0.012,0.126-0.037,0.184c-0.025,0.057-0.054,0.117-0.086,0.183c-0.033,0.065-0.066,0.138-0.099,0.22
		c-0.363,0.568-0.767,1.072-1.212,1.512c-0.379,0.374-0.829,0.715-1.348,1.023s-1.085,0.464-1.695,0.464
		c-0.396,0-0.8-0.069-1.212-0.208c-0.413-0.138-0.788-0.337-1.126-0.597c-0.338-0.26-0.619-0.569-0.841-0.927
		s-0.334-0.748-0.334-1.171c0-0.341,0.042-0.76,0.124-1.256c0.083-0.495,0.198-1.036,0.346-1.621s0.317-1.203,0.507-1.854
		c0.189-0.649,0.392-1.292,0.606-1.926h-0.668c-0.132,0-0.198-0.073-0.198-0.22c0-0.13,0.078-0.305,0.235-0.524
		c0.157-0.219,0.326-0.329,0.507-0.329h0.495c0.248-0.666,0.491-1.28,0.73-1.841c0.239-0.561,0.474-1.036,0.705-1.427
		c0.066-0.13,0.157-0.239,0.272-0.329c0.115-0.089,0.247-0.134,0.396-0.134c0.182,0,0.384,0.058,0.606,0.171
		s0.433,0.248,0.631,0.402s0.363,0.313,0.495,0.476c0.132,0.162,0.198,0.301,0.198,0.414c0,0.114-0.079,0.37-0.235,0.769
		s-0.351,0.898-0.581,1.499h1.658c0.132,0,0.198,0.073,0.198,0.22c0,0.065-0.025,0.146-0.074,0.244s-0.111,0.191-0.186,0.28
		s-0.153,0.167-0.235,0.231c-0.083,0.065-0.166,0.098-0.248,0.098h-1.534c-0.198,0.536-0.4,1.105-0.606,1.707
		c-0.207,0.602-0.392,1.194-0.557,1.779c-0.165,0.586-0.301,1.15-0.408,1.695c-0.108,0.545-0.161,1.036-0.161,1.475
		c0,0.375,0.127,0.68,0.384,0.915C94.616,123.013,94.925,123.131,95.288,123.131z"/>
	<path fill="#2B292A" d="M107.436,121.766c-0.362,0.568-0.816,1.072-1.36,1.512c-0.462,0.374-1.035,0.715-1.719,1.023
		c-0.685,0.309-1.497,0.464-2.438,0.464c-0.627,0-1.204-0.09-1.732-0.269s-0.981-0.427-1.36-0.744
		c-0.38-0.316-0.677-0.694-0.891-1.134c-0.214-0.438-0.321-0.918-0.321-1.438c0-0.927,0.173-1.771,0.52-2.536
		c0.346-0.764,0.783-1.418,1.311-1.963c0.528-0.544,1.101-0.963,1.72-1.255c0.619-0.293,1.2-0.439,1.744-0.439
		c0.379,0,0.734,0.073,1.064,0.22s0.619,0.338,0.866,0.573c0.247,0.235,0.441,0.508,0.581,0.816c0.14,0.31,0.21,0.626,0.21,0.951
		c0,0.293-0.066,0.646-0.198,1.061c-0.132,0.415-0.351,0.809-0.656,1.183s-0.717,0.695-1.237,0.963
		c-0.52,0.269-1.167,0.402-1.942,0.402c-0.182,0-0.371-0.024-0.569-0.073c-0.115-0.016-0.239-0.04-0.371-0.073
		c0,0.732,0.214,1.293,0.644,1.683c0.429,0.391,0.94,0.586,1.534,0.586c0.577,0,1.105-0.118,1.583-0.354
		c0.479-0.236,0.882-0.492,1.212-0.769c0.396-0.325,0.734-0.698,1.015-1.122c0.016-0.048,0.058-0.105,0.124-0.17
		c0.033-0.032,0.083-0.069,0.148-0.11c0.066-0.04,0.14-0.061,0.222-0.061c0.133,0,0.252,0.049,0.359,0.146s0.16,0.211,0.16,0.341
		c0,0.065-0.012,0.126-0.037,0.184c-0.023,0.057-0.053,0.117-0.086,0.183S107.469,121.684,107.436,121.766z M100.781,120.01
		c0.445,0,0.866-0.122,1.262-0.366c0.396-0.243,0.738-0.54,1.027-0.89c0.288-0.35,0.515-0.711,0.68-1.085
		c0.165-0.374,0.248-0.691,0.248-0.951c0-0.325-0.148-0.487-0.445-0.487c-0.347,0-0.685,0.138-1.015,0.414s-0.623,0.609-0.878,1
		c-0.256,0.39-0.466,0.805-0.631,1.243C100.863,119.328,100.781,119.702,100.781,120.01z"/>
	<path fill="#2B292A" d="M112.904,122.278c0,0.276,0.074,0.487,0.223,0.634s0.346,0.22,0.594,0.22c0.33,0,0.654-0.105,0.977-0.317
		c0.322-0.211,0.605-0.455,0.854-0.731c0.297-0.293,0.57-0.642,0.816-1.049c0.018-0.048,0.059-0.105,0.125-0.17
		c0.031-0.032,0.082-0.069,0.148-0.11c0.064-0.04,0.139-0.061,0.223-0.061c0.131,0,0.25,0.049,0.357,0.146s0.162,0.211,0.162,0.341
		c0,0.065-0.014,0.126-0.037,0.184c-0.025,0.057-0.055,0.117-0.088,0.183s-0.066,0.138-0.098,0.22
		c-0.363,0.568-0.768,1.072-1.213,1.512c-0.381,0.374-0.83,0.715-1.35,1.023s-1.084,0.464-1.693,0.464
		c-0.479,0-0.908-0.065-1.287-0.195s-0.709-0.305-0.99-0.524c-0.279-0.22-0.494-0.476-0.643-0.768
		c-0.148-0.293-0.223-0.61-0.223-0.951c0-0.537,0.082-1.04,0.248-1.512c0.164-0.472,0.342-0.902,0.531-1.293
		c0.189-0.39,0.367-0.735,0.531-1.036c0.166-0.301,0.248-0.549,0.248-0.743c0-0.13-0.078-0.228-0.234-0.293
		c-0.158-0.064-0.326-0.122-0.508-0.171c-0.215-0.049-0.463-0.089-0.742-0.122c-0.479,1.188-0.932,2.158-1.361,2.914
		s-0.775,1.321-1.039,1.695c-0.033,0.048-0.095,0.121-0.186,0.219s-0.21,0.146-0.358,0.146c-0.132,0-0.251-0.053-0.359-0.158
		c-0.107-0.105-0.161-0.224-0.161-0.354c0-0.114,0.037-0.224,0.111-0.329s0.128-0.191,0.161-0.257
		c0.231-0.324,0.557-0.841,0.977-1.548s0.813-1.638,1.176-2.792c-0.166-0.113-0.307-0.26-0.422-0.438
		c-0.098-0.146-0.189-0.333-0.271-0.562c-0.082-0.228-0.123-0.495-0.123-0.805c0-0.243,0.045-0.476,0.135-0.694
		c0.092-0.22,0.211-0.411,0.359-0.573s0.305-0.293,0.471-0.391c0.164-0.097,0.322-0.146,0.471-0.146c0.164,0,0.338,0.045,0.52,0.134
		c0.18,0.09,0.346,0.195,0.494,0.317c0.148,0.121,0.271,0.26,0.371,0.414s0.148,0.289,0.148,0.402c0,0.325-0.055,0.594-0.16,0.805
		c-0.107,0.211-0.162,0.414-0.162,0.609c0,0.18,0.1,0.31,0.297,0.391c0.199,0.081,0.445,0.122,0.742,0.122
		c0.281,0,0.516-0.017,0.705-0.049c0.189-0.033,0.359-0.069,0.508-0.11c0.148-0.04,0.289-0.077,0.42-0.109
		c0.133-0.032,0.273-0.049,0.422-0.049c0.297,0,0.539,0.114,0.729,0.341c0.189,0.229,0.285,0.505,0.285,0.829
		c0,0.277-0.096,0.606-0.285,0.988s-0.398,0.801-0.631,1.256c-0.23,0.455-0.441,0.931-0.631,1.426
		C112.998,121.298,112.904,121.79,112.904,122.278z"/>
	<path fill="#2B292A" d="M132.474,121.766c-0.412,0.602-0.948,1.13-1.608,1.584c-0.561,0.407-1.282,0.772-2.165,1.098
		c-0.882,0.325-1.959,0.487-3.229,0.487c-0.61,0-1.188-0.117-1.731-0.354c-0.545-0.235-1.02-0.532-1.423-0.89
		c-0.404-0.357-0.727-0.747-0.965-1.17c-0.239-0.423-0.359-0.813-0.359-1.171s0.124-0.658,0.371-0.902
		c0.248-0.243,0.52-0.446,0.816-0.609c0.347-0.179,0.742-0.325,1.188-0.438c0.099-0.163,0.23-0.366,0.396-0.61
		c0.132-0.211,0.305-0.476,0.52-0.792c0.214-0.317,0.462-0.695,0.742-1.134c0.577-0.861,1.072-1.459,1.484-1.792
		s0.775-0.5,1.089-0.5c0.132,0,0.268,0.036,0.408,0.109c0.14,0.073,0.272,0.158,0.396,0.256c0.124,0.098,0.223,0.195,0.297,0.293
		s0.111,0.179,0.111,0.244c0,0.081-0.033,0.183-0.099,0.305c-0.066,0.121-0.136,0.252-0.21,0.39
		c-0.074,0.139-0.141,0.285-0.198,0.439s-0.087,0.313-0.087,0.475c0,0.488,0.05,0.911,0.148,1.269
		c0.1,0.357,0.211,0.694,0.334,1.012c0.124,0.317,0.235,0.626,0.334,0.927c0.1,0.301,0.148,0.638,0.148,1.012
		c0,0.325-0.028,0.598-0.086,0.817c-0.059,0.219-0.128,0.41-0.211,0.572c-0.082,0.18-0.173,0.334-0.271,0.464
		c0.478-0.13,0.911-0.313,1.299-0.549c0.387-0.235,0.713-0.467,0.978-0.695c0.297-0.276,0.561-0.568,0.791-0.878
		c0.017-0.048,0.058-0.105,0.124-0.17c0.033-0.032,0.082-0.069,0.148-0.11c0.065-0.04,0.14-0.061,0.223-0.061
		c0.132,0,0.251,0.049,0.358,0.146s0.161,0.211,0.161,0.341c0,0.065-0.013,0.126-0.037,0.184c-0.024,0.057-0.054,0.117-0.087,0.183
		S132.507,121.684,132.474,121.766z M125.496,118.01c-0.346,0.521-0.651,0.992-0.915,1.414c-0.231,0.375-0.441,0.724-0.631,1.049
		s-0.284,0.528-0.284,0.609c0,0.358,0.021,0.704,0.062,1.037s0.111,0.63,0.21,0.89c0.1,0.26,0.223,0.468,0.371,0.622
		s0.338,0.231,0.569,0.231c0.379,0,0.705-0.203,0.978-0.609c0.271-0.406,0.408-0.886,0.408-1.439c0-0.309-0.042-0.634-0.124-0.975
		c-0.083-0.342-0.169-0.679-0.26-1.013c-0.091-0.332-0.178-0.658-0.26-0.975C125.537,118.535,125.496,118.254,125.496,118.01z"/>
	<path fill="#2B292A" d="M135.765,123.131c0.33,0,0.656-0.105,0.978-0.317c0.322-0.211,0.606-0.455,0.854-0.731
		c0.297-0.293,0.569-0.642,0.816-1.049c0.017-0.048,0.058-0.105,0.124-0.17c0.033-0.032,0.082-0.069,0.148-0.11
		c0.065-0.04,0.14-0.061,0.223-0.061c0.132,0,0.251,0.049,0.358,0.146s0.161,0.211,0.161,0.341c0,0.065-0.013,0.126-0.037,0.184
		c-0.024,0.057-0.054,0.117-0.087,0.183s-0.065,0.138-0.099,0.22c-0.363,0.568-0.767,1.072-1.212,1.512
		c-0.38,0.374-0.829,0.715-1.349,1.023s-1.085,0.464-1.695,0.464c-0.396,0-0.8-0.069-1.212-0.208
		c-0.413-0.138-0.788-0.337-1.126-0.597s-0.618-0.569-0.841-0.927s-0.334-0.748-0.334-1.171c0-0.341,0.041-0.76,0.123-1.256
		c0.083-0.495,0.198-1.036,0.347-1.621s0.317-1.203,0.507-1.854c0.189-0.649,0.392-1.292,0.606-1.926h-0.668
		c-0.132,0-0.198-0.073-0.198-0.22c0-0.13,0.078-0.305,0.235-0.524c0.156-0.219,0.325-0.329,0.507-0.329h0.495
		c0.248-0.666,0.491-1.28,0.73-1.841c0.238-0.561,0.474-1.036,0.705-1.427c0.065-0.13,0.156-0.239,0.271-0.329
		c0.115-0.089,0.248-0.134,0.396-0.134c0.181,0,0.383,0.058,0.605,0.171s0.434,0.248,0.631,0.402
		c0.198,0.154,0.363,0.313,0.495,0.476c0.132,0.162,0.198,0.301,0.198,0.414c0,0.114-0.078,0.37-0.235,0.769
		s-0.351,0.898-0.581,1.499h1.657c0.132,0,0.198,0.073,0.198,0.22c0,0.065-0.024,0.146-0.074,0.244s-0.111,0.191-0.186,0.28
		s-0.152,0.167-0.235,0.231c-0.082,0.065-0.165,0.098-0.247,0.098h-1.534c-0.198,0.536-0.4,1.105-0.606,1.707
		s-0.392,1.194-0.557,1.779c-0.165,0.586-0.301,1.15-0.408,1.695s-0.16,1.036-0.16,1.475c0,0.375,0.127,0.68,0.383,0.915
		S135.402,123.131,135.765,123.131z"/>
	<path fill="#2B292A" d="M146.898,123.887c0.792-0.455,1.443-0.923,1.955-1.402c0.511-0.479,0.948-0.963,1.311-1.451
		c0.033-0.048,0.083-0.105,0.148-0.17c0.05-0.032,0.107-0.069,0.174-0.11c0.065-0.04,0.14-0.061,0.223-0.061
		c0.148,0,0.272,0.049,0.371,0.146s0.148,0.211,0.148,0.341c0,0.065-0.017,0.126-0.05,0.184c-0.033,0.057-0.065,0.117-0.099,0.183
		c-0.05,0.065-0.091,0.138-0.124,0.22c-0.429,0.568-0.989,1.149-1.683,1.743c-0.692,0.594-1.607,1.183-2.746,1.768
		c-0.215,0.731-0.458,1.467-0.729,2.207c-0.272,0.739-0.606,1.401-1.002,1.987c-0.396,0.585-0.871,1.064-1.423,1.438
		c-0.553,0.374-1.2,0.561-1.942,0.561c-0.38,0-0.738-0.061-1.076-0.183c-0.339-0.122-0.636-0.285-0.891-0.488
		c-0.256-0.203-0.458-0.447-0.606-0.731s-0.223-0.589-0.223-0.914c0-0.406,0.128-0.784,0.384-1.134
		c0.255-0.35,0.614-0.679,1.076-0.987c0.461-0.31,1.01-0.606,1.646-0.891c0.635-0.284,1.323-0.572,2.065-0.865
		c0.132-0.455,0.239-0.886,0.322-1.292c0.082-0.406,0.156-0.756,0.223-1.049c-0.198,0.228-0.426,0.451-0.681,0.671
		c-0.256,0.219-0.532,0.414-0.829,0.585s-0.606,0.309-0.928,0.414s-0.64,0.159-0.952,0.159c-0.281,0-0.574-0.062-0.879-0.184
		c-0.306-0.121-0.581-0.288-0.829-0.499c-0.247-0.212-0.453-0.464-0.618-0.756c-0.165-0.293-0.247-0.602-0.247-0.927
		c0-0.439,0.074-0.983,0.223-1.634s0.321-1.313,0.52-1.987c0.197-0.675,0.408-1.313,0.631-1.914s0.408-1.073,0.557-1.414
		c0.065-0.13,0.156-0.24,0.272-0.33c0.114-0.089,0.247-0.134,0.396-0.134c0.182,0,0.388,0.058,0.618,0.171
		c0.231,0.114,0.445,0.244,0.644,0.39c0.198,0.146,0.362,0.297,0.495,0.451c0.132,0.155,0.197,0.281,0.197,0.378
		c0,0.326-0.082,0.724-0.247,1.195s-0.351,0.983-0.557,1.536s-0.392,1.121-0.557,1.707c-0.165,0.585-0.247,1.146-0.247,1.683
		c0,0.194,0.049,0.365,0.148,0.512c0.099,0.146,0.238,0.22,0.42,0.22c0.198,0,0.404-0.053,0.619-0.159
		c0.214-0.105,0.42-0.243,0.618-0.414s0.379-0.357,0.544-0.561s0.298-0.402,0.396-0.598c0.23-0.423,0.445-0.898,0.644-1.427
		c0.197-0.528,0.383-1.064,0.557-1.609c0.173-0.544,0.329-1.076,0.47-1.597c0.14-0.521,0.276-0.991,0.408-1.414
		c0.033-0.146,0.115-0.261,0.247-0.342s0.28-0.122,0.445-0.122c0.182,0,0.384,0.058,0.606,0.171c0.223,0.114,0.434,0.244,0.631,0.39
		c0.198,0.146,0.363,0.297,0.495,0.451c0.132,0.155,0.198,0.281,0.198,0.378c0,0.18-0.05,0.496-0.148,0.951
		c-0.1,0.455-0.223,0.987-0.371,1.598c-0.148,0.609-0.318,1.256-0.508,1.938s-0.375,1.325-0.557,1.926L146.898,123.887z
		 M140.813,130.178c0.264,0,0.52-0.094,0.767-0.28c0.247-0.188,0.479-0.436,0.692-0.744c0.215-0.309,0.412-0.671,0.594-1.085
		s0.347-0.841,0.495-1.28c-0.445,0.244-0.85,0.5-1.212,0.769c-0.363,0.268-0.677,0.532-0.94,0.792s-0.47,0.508-0.618,0.744
		c-0.148,0.235-0.224,0.435-0.224,0.597C140.366,130.015,140.516,130.178,140.813,130.178z"/>
	<path fill="#2B292A" d="M153.776,124.765c-0.495,0-0.969-0.082-1.423-0.244s-0.854-0.402-1.2-0.72
		c-0.346-0.316-0.622-0.702-0.828-1.158c-0.206-0.454-0.31-0.967-0.31-1.536c0-0.813,0.095-1.715,0.284-2.706
		s0.458-1.987,0.805-2.987c0.346-1,0.746-1.971,1.2-2.914c0.453-0.942,0.952-1.783,1.496-2.523c0.545-0.739,1.109-1.329,1.695-1.768
		c0.585-0.439,1.175-0.658,1.769-0.658c0.28,0,0.545,0.064,0.792,0.194c0.247,0.131,0.466,0.293,0.655,0.488s0.343,0.41,0.458,0.646
		c0.115,0.236,0.174,0.46,0.174,0.671c0,0.342-0.096,0.776-0.285,1.305s-0.441,1.098-0.755,1.707s-0.68,1.239-1.101,1.89
		s-0.857,1.28-1.312,1.89s-0.911,1.179-1.373,1.707s-0.899,0.963-1.312,1.305c-0.033,0.194-0.065,0.398-0.099,0.609
		c-0.033,0.179-0.058,0.378-0.074,0.598c-0.017,0.219-0.024,0.435-0.024,0.646c0,0.569,0.136,1.033,0.408,1.39
		c0.271,0.358,0.663,0.537,1.175,0.537c0.33,0,0.655-0.105,0.978-0.317c0.321-0.211,0.606-0.455,0.854-0.731
		c0.297-0.293,0.569-0.642,0.816-1.049c0.017-0.048,0.058-0.105,0.124-0.17c0.032-0.032,0.082-0.069,0.148-0.11
		c0.065-0.04,0.14-0.061,0.223-0.061c0.132,0,0.251,0.049,0.358,0.146s0.161,0.211,0.161,0.341c0,0.065-0.013,0.126-0.037,0.184
		c-0.025,0.057-0.054,0.117-0.087,0.183s-0.066,0.138-0.099,0.22c-0.363,0.568-0.768,1.072-1.213,1.512
		c-0.379,0.374-0.828,0.715-1.348,1.023C154.951,124.61,154.387,124.765,153.776,124.765z M158.106,109.525
		c0-0.228-0.1-0.341-0.297-0.341c-0.231,0-0.532,0.252-0.903,0.756s-0.759,1.162-1.163,1.975c-0.404,0.813-0.804,1.724-1.2,2.731
		c-0.396,1.008-0.717,2.023-0.965,3.048c0.28-0.228,0.59-0.553,0.928-0.976s0.672-0.898,1.003-1.427
		c0.329-0.527,0.651-1.076,0.965-1.646c0.313-0.569,0.589-1.117,0.828-1.646c0.239-0.527,0.434-1.012,0.582-1.45
		C158.032,110.11,158.106,109.769,158.106,109.525z"/>
	<path fill="#2B292A" d="M166.865,121.766c-0.363,0.568-0.816,1.072-1.361,1.512c-0.462,0.374-1.035,0.715-1.72,1.023
		s-1.497,0.464-2.437,0.464c-0.627,0-1.204-0.09-1.732-0.269s-0.981-0.427-1.36-0.744c-0.38-0.316-0.677-0.694-0.891-1.134
		c-0.215-0.438-0.322-0.918-0.322-1.438c0-0.927,0.174-1.771,0.52-2.536c0.347-0.764,0.783-1.418,1.312-1.963
		c0.528-0.544,1.102-0.963,1.72-1.255c0.618-0.293,1.2-0.439,1.744-0.439c0.38,0,0.734,0.073,1.064,0.22
		c0.329,0.146,0.618,0.338,0.865,0.573c0.248,0.235,0.441,0.508,0.582,0.816c0.14,0.31,0.21,0.626,0.21,0.951
		c0,0.293-0.066,0.646-0.198,1.061c-0.132,0.415-0.351,0.809-0.655,1.183c-0.306,0.374-0.718,0.695-1.237,0.963
		c-0.52,0.269-1.167,0.402-1.942,0.402c-0.182,0-0.371-0.024-0.568-0.073c-0.116-0.016-0.239-0.04-0.371-0.073
		c0,0.732,0.214,1.293,0.643,1.683c0.429,0.391,0.94,0.586,1.534,0.586c0.577,0,1.105-0.118,1.584-0.354
		c0.478-0.236,0.882-0.492,1.212-0.769c0.396-0.325,0.733-0.698,1.015-1.122c0.016-0.048,0.058-0.105,0.124-0.17
		c0.032-0.032,0.082-0.069,0.148-0.11c0.065-0.04,0.14-0.061,0.223-0.061c0.132,0,0.251,0.049,0.358,0.146s0.161,0.211,0.161,0.341
		c0,0.065-0.013,0.126-0.037,0.184c-0.025,0.057-0.054,0.117-0.087,0.183S166.897,121.684,166.865,121.766z M160.209,120.01
		c0.445,0,0.866-0.122,1.262-0.366c0.396-0.243,0.738-0.54,1.027-0.89c0.288-0.35,0.516-0.711,0.681-1.085
		c0.164-0.374,0.247-0.691,0.247-0.951c0-0.325-0.148-0.487-0.445-0.487c-0.347,0-0.685,0.138-1.015,0.414s-0.623,0.609-0.878,1
		c-0.256,0.39-0.467,0.805-0.631,1.243C160.292,119.328,160.209,119.702,160.209,120.01z"/>
</g>
<g>
	<path fill="#2B292A" d="M95.381,131.993h5.706v1.021h-4.579v2.536h4.097v1.021h-4.097v2.617h4.719v1.021h-5.846V131.993z"/>
	<path fill="#2B292A" d="M106.656,133.161c-0.411-0.121-0.789-0.182-1.133-0.182c-0.478,0-0.859,0.092-1.145,0.276
		c-0.286,0.184-0.429,0.436-0.429,0.757c0,0.29,0.086,0.526,0.258,0.71c0.172,0.185,0.383,0.329,0.634,0.435
		c0.25,0.105,0.599,0.229,1.044,0.37c0.556,0.172,1.006,0.336,1.35,0.493c0.345,0.156,0.638,0.389,0.88,0.698
		c0.242,0.309,0.365,0.718,0.365,1.227c0,0.47-0.129,0.881-0.383,1.232c-0.254,0.353-0.609,0.624-1.068,0.816
		c-0.457,0.191-0.983,0.287-1.578,0.287c-0.603,0-1.19-0.117-1.761-0.353c-0.571-0.234-1.064-0.547-1.479-0.938l0.505-0.975
		c0.391,0.384,0.832,0.679,1.321,0.887c0.489,0.207,0.964,0.311,1.426,0.311c0.548,0,0.98-0.107,1.297-0.322
		c0.317-0.216,0.476-0.507,0.476-0.875c0-0.289-0.086-0.528-0.258-0.716c-0.172-0.188-0.389-0.337-0.651-0.446
		s-0.616-0.23-1.063-0.364c-0.548-0.164-0.994-0.324-1.338-0.48c-0.344-0.157-0.636-0.388-0.875-0.693
		c-0.239-0.305-0.358-0.708-0.358-1.209c0-0.438,0.121-0.825,0.364-1.162c0.243-0.336,0.583-0.595,1.021-0.774
		c0.438-0.181,0.947-0.271,1.526-0.271c0.493,0,0.977,0.072,1.449,0.218c0.475,0.145,0.895,0.338,1.262,0.581l-0.469,1.009
		C107.465,133.464,107.067,133.283,106.656,133.161z"/>
	<path fill="#2B292A" d="M109.222,131.993h6.422v1.033h-2.653v7.185h-1.127v-7.185h-2.642V131.993z"/>
	<path fill="#2B292A" d="M116.775,139.154c0.121,0.125,0.182,0.286,0.182,0.481s-0.061,0.358-0.182,0.487s-0.272,0.193-0.452,0.193
		s-0.333-0.064-0.458-0.193s-0.188-0.292-0.188-0.487s0.063-0.356,0.188-0.481s0.278-0.188,0.458-0.188
		S116.654,139.029,116.775,139.154z"/>
</g>
<g>
	<path fill="#2B292A" d="M93.162,146.08h2.994v8.218h-1.127v-7.196h-1.867V146.08z"/>
	<path fill="#2B292A" d="M99.707,153.27c0.325,0.09,0.647,0.135,0.969,0.135c0.782,0,1.383-0.275,1.802-0.827
		c0.418-0.552,0.628-1.305,0.628-2.26c0-0.148-0.004-0.263-0.012-0.341c-0.196,0.454-0.495,0.799-0.898,1.033
		c-0.403,0.235-0.89,0.353-1.461,0.353c-0.814,0-1.456-0.235-1.925-0.704c-0.47-0.47-0.705-1.104-0.705-1.902
		c0-0.556,0.118-1.039,0.353-1.449c0.235-0.411,0.565-0.727,0.992-0.945s0.922-0.329,1.485-0.329c0.673,0,1.256,0.157,1.749,0.47
		c0.493,0.313,0.871,0.768,1.133,1.362s0.393,1.307,0.393,2.136c0,0.869-0.141,1.632-0.422,2.289
		c-0.282,0.658-0.685,1.167-1.209,1.526c-0.524,0.36-1.135,0.54-1.831,0.54c-0.384,0-0.791-0.057-1.221-0.17
		c-0.43-0.113-0.814-0.261-1.15-0.44l0.446-0.857C99.086,153.053,99.382,153.18,99.707,153.27z M99.666,147.477
		c-0.336,0.313-0.505,0.743-0.505,1.291c0,0.517,0.161,0.928,0.481,1.232c0.321,0.306,0.751,0.458,1.292,0.458
		c0.399,0,0.745-0.08,1.039-0.24s0.519-0.376,0.675-0.646c0.156-0.271,0.234-0.562,0.234-0.875c0-0.266-0.068-0.53-0.205-0.792
		c-0.137-0.263-0.346-0.478-0.628-0.646c-0.282-0.168-0.63-0.252-1.045-0.252C100.448,147.007,100.002,147.164,99.666,147.477z"/>
	<path fill="#2B292A" d="M107.148,153.27c0.325,0.09,0.648,0.135,0.969,0.135c0.783,0,1.383-0.275,1.803-0.827
		c0.418-0.552,0.627-1.305,0.627-2.26c0-0.148-0.004-0.263-0.012-0.341c-0.195,0.454-0.494,0.799-0.896,1.033
		c-0.404,0.235-0.891,0.353-1.463,0.353c-0.813,0-1.455-0.235-1.925-0.704c-0.47-0.47-0.705-1.104-0.705-1.902
		c0-0.556,0.118-1.039,0.353-1.449c0.235-0.411,0.565-0.727,0.992-0.945s0.922-0.329,1.484-0.329c0.674,0,1.258,0.157,1.75,0.47
		c0.492,0.313,0.871,0.768,1.133,1.362s0.393,1.307,0.393,2.136c0,0.869-0.141,1.632-0.422,2.289
		c-0.281,0.658-0.686,1.167-1.209,1.526c-0.525,0.36-1.135,0.54-1.832,0.54c-0.383,0-0.79-0.057-1.221-0.17
		c-0.43-0.113-0.814-0.261-1.15-0.44l0.446-0.857C106.529,153.053,106.824,153.18,107.148,153.27z M107.107,147.477
		c-0.336,0.313-0.504,0.743-0.504,1.291c0,0.517,0.161,0.928,0.481,1.232c0.321,0.306,0.752,0.458,1.291,0.458
		c0.4,0,0.746-0.08,1.039-0.24c0.295-0.16,0.52-0.376,0.676-0.646c0.156-0.271,0.234-0.562,0.234-0.875
		c0-0.266-0.068-0.53-0.205-0.792c-0.137-0.263-0.346-0.478-0.629-0.646c-0.281-0.168-0.629-0.252-1.045-0.252
		C107.891,147.007,107.444,147.164,107.107,147.477z"/>
	<path fill="#2B292A" d="M112.473,146.08h6.151v0.881l-3.58,7.337h-1.197l3.51-7.196h-3.862l-0.012,1.186h-1.01V146.08z"/>
</g>
<g>
	<defs>
		<rect id="SVGID_1_" width="215.836" height="170.566"/>
	</defs>
	<clipPath id="SVGID_2_">
		<use xlink:href="#SVGID_1_"  overflow="visible"/>
	</clipPath>
	<g clip-path="url(#SVGID_2_)">
		<path fill="#2B292A" d="M187.118,40.026c-13.45-7.362-25.7-15.718-36.41-24.837C139.203,5.394,124.007,0,107.918,0
			C91.83,0,76.633,5.394,65.128,15.189c-10.71,9.119-22.96,17.475-36.41,24.837C20.114,44.735,12.923,51.294,7.92,58.994
			C2.739,66.969,0,76.06,0,85.283s2.739,18.315,7.92,26.289c5.003,7.7,12.194,14.259,20.798,18.968
			c13.45,7.362,25.7,15.719,36.41,24.837c11.506,9.795,26.702,15.189,42.79,15.189s31.284-5.394,42.79-15.189
			c10.71-9.118,22.961-17.475,36.41-24.837c8.604-4.709,15.795-11.268,20.798-18.968c5.181-7.974,7.92-17.066,7.92-26.289
			s-2.739-18.314-7.92-26.289C202.913,51.294,195.722,44.735,187.118,40.026 M107.918,167.123c-15.271,0-29.674-5.103-40.558-14.367
			c-10.889-9.271-23.334-17.762-36.989-25.236C13.51,118.29,3.443,102.501,3.443,85.283S13.51,52.276,30.371,43.046
			c13.655-7.474,26.101-15.965,36.989-25.235C78.243,8.546,92.647,3.444,107.918,3.444s29.675,5.102,40.558,14.367
			c10.888,9.27,23.334,17.761,36.989,25.235c16.861,9.23,26.928,25.019,26.928,42.237s-10.067,33.007-26.928,42.237
			c-13.655,7.474-26.101,15.965-36.989,25.236C137.593,162.02,123.189,167.123,107.918,167.123"/>
	</g>
	<g clip-path="url(#SVGID_2_)">
		<path fill="#2B292A" d="M209.38,85.283c0-16.1-9.482-30.901-25.361-39.594c-13.837-7.574-26.453-16.181-37.497-25.584
			c-10.338-8.802-24.048-13.649-38.604-13.649s-28.266,4.847-38.604,13.649c-11.045,9.403-23.661,18.011-37.496,25.584
			C15.937,54.381,6.457,69.183,6.457,85.283c0,16.099,9.48,30.901,25.361,39.593c13.835,7.574,26.451,16.182,37.496,25.584
			c10.338,8.802,24.048,13.65,38.604,13.65s28.266-4.848,38.604-13.65c11.045-9.403,23.661-18.01,37.496-25.584
			C199.898,116.184,209.38,101.382,209.38,85.283 M107.918,162.101c-14.079,0-27.327-4.678-37.302-13.17
			c-11.15-9.492-23.878-18.178-37.834-25.816C17.556,114.78,8.465,100.637,8.465,85.283c0-15.355,9.091-29.497,24.317-37.832
			c13.956-7.639,26.684-16.325,37.834-25.817c9.975-8.492,23.223-13.169,37.302-13.169s27.327,4.677,37.303,13.169
			c11.148,9.491,23.877,18.177,37.833,25.817c15.226,8.335,24.317,22.478,24.317,37.832s-9.091,29.497-24.317,37.832
			c-13.955,7.638-26.684,16.324-37.833,25.816C135.245,157.423,121.997,162.101,107.918,162.101"/>
	</g>
	<g clip-path="url(#SVGID_2_)">
		
			<rect x="16.22" y="77.967" transform="matrix(-0.7071 -0.7071 0.7071 -0.7071 -23.139 154.9561)" fill="#2B292A" width="8.607" height="8.607"/>
	</g>
	<g clip-path="url(#SVGID_2_)">
		
			<rect x="191.009" y="77.967" transform="matrix(0.7072 0.707 -0.707 0.7072 115.3635 -114.0041)" fill="#2B292A" width="8.608" height="8.607"/>
	</g>
	<g clip-path="url(#SVGID_2_)">
		<path fill="#2B292A" d="M117.588,41.108l2.405,1.804c0,0-0.167,5.018-5.326,4.553c-3.47-0.313-4.176-12.091-4.257-20.017h3.284
			v-3.995h-3.277c0.012-0.831,0.026-1.527,0.041-2.048c1.264-0.829,2.1-2.255,2.1-3.88c0-2.562-2.077-4.639-4.64-4.639
			c-2.562,0-4.639,2.077-4.639,4.639c0,1.621,0.831,3.045,2.09,3.875c0.014,0.521,0.03,1.219,0.041,2.053h-3.268v3.995h3.276
			c-0.078,7.926-0.779,19.704-4.249,20.017c-5.159,0.465-5.326-4.553-5.326-4.553l2.405-1.804c0,0-4.982-2.664-6.1-4.897
			c0,0-3.092,6.529-3.264,9.793c0,0,2.062-1.116,2.492-1.288c0,0,3.117,9.926,14.872,11.08l0.863,0.099
			c0.565,0.064,1.135,0.063,1.7-0.005l0.777-0.094c11.756-1.154,14.873-11.08,14.873-11.08c0.429,0.172,2.491,1.288,2.491,1.288
			c-0.172-3.264-3.264-9.793-3.264-9.793C122.57,38.444,117.588,41.108,117.588,41.108 M107.918,19.588
			c-1.139,0-2.063-0.923-2.063-2.063c0-1.139,0.924-2.062,2.063-2.062c1.139,0,2.063,0.923,2.063,2.062
			C109.981,18.665,109.057,19.588,107.918,19.588"/>
	</g>
</g>
</svg>
