<svg width="597" height="842" viewBox="0 0 597 842" fill="none" xmlns="http://www.w3.org/2000/svg">
<path d="M310.875 433.136C310.795 433.216 310.645 433.366 310.645 433.446C307.645 436.666 307.115 441.956 307.035 444.446H290.085C290.005 441.916 289.475 436.396 286.245 433.096C283.385 430.591 281.357 427.273 280.432 423.586C279.506 419.898 279.727 416.017 281.066 412.458C282.404 408.9 284.795 405.834 287.921 403.67C291.047 401.506 294.758 400.347 298.56 400.347C302.361 400.347 306.073 401.506 309.198 403.67C312.324 405.834 314.715 408.9 316.054 412.458C317.392 416.017 317.613 419.898 316.687 423.586C315.762 427.273 313.734 430.591 310.875 433.096V433.136ZM312.875 434.856C316.059 431.957 318.289 428.159 319.268 423.966C320.248 419.772 319.932 415.38 318.361 411.37C316.791 407.36 314.04 403.921 310.473 401.508C306.906 399.096 302.69 397.823 298.384 397.858C294.077 397.892 289.883 399.234 286.355 401.704C282.828 404.174 280.133 407.657 278.628 411.692C277.123 415.727 276.877 420.123 277.925 424.301C278.973 428.478 281.263 432.239 284.495 435.086C287.865 438.466 287.565 445.676 287.495 445.756C287.481 445.94 287.508 446.125 287.574 446.298C287.64 446.47 287.742 446.627 287.875 446.756C288.127 446.993 288.458 447.132 288.805 447.146H308.345C308.516 447.146 308.686 447.111 308.844 447.044C309.002 446.977 309.145 446.879 309.265 446.756C309.515 446.483 309.651 446.125 309.645 445.756C309.645 445.676 309.265 438.466 312.645 435.086L312.875 434.856Z" fill="#998778"/>
<path d="M307.035 452.386H290.035C289.873 452.386 289.718 452.321 289.603 452.207C289.489 452.093 289.425 451.937 289.425 451.776C289.417 451.694 289.428 451.611 289.455 451.533C289.483 451.456 289.528 451.385 289.586 451.327C289.645 451.269 289.715 451.224 289.792 451.196C289.87 451.168 289.953 451.158 290.035 451.166H307.035C307.197 451.166 307.352 451.23 307.466 451.344C307.58 451.459 307.645 451.614 307.645 451.776C307.653 451.852 307.645 451.929 307.622 452.002C307.599 452.075 307.561 452.143 307.51 452.2C307.459 452.258 307.397 452.304 307.327 452.336C307.257 452.368 307.181 452.385 307.105 452.386H307.035ZM310.335 451.856C310.33 451.002 309.987 450.184 309.382 449.581C308.777 448.978 307.959 448.638 307.105 448.636H290.105C289.251 448.636 288.432 448.975 287.828 449.579C287.224 450.183 286.885 451.002 286.885 451.856C286.885 452.71 287.224 453.529 287.828 454.133C288.432 454.736 289.251 455.076 290.105 455.076H307.105C307.966 455.073 308.792 454.736 309.408 454.135C310.024 453.534 310.381 452.716 310.405 451.856" fill="#998778"/>
<path d="M304.504 460.136H292.504C292.343 460.136 292.188 460.071 292.073 459.957C291.959 459.843 291.894 459.687 291.894 459.526C291.887 459.444 291.897 459.361 291.925 459.283C291.953 459.206 291.998 459.135 292.056 459.077C292.114 459.019 292.185 458.974 292.262 458.946C292.34 458.918 292.422 458.908 292.504 458.916H304.504C304.666 458.916 304.821 458.98 304.936 459.094C305.05 459.209 305.114 459.364 305.114 459.526C305.114 459.687 305.05 459.843 304.936 459.957C304.821 460.071 304.666 460.136 304.504 460.136ZM304.504 456.376H292.504C291.68 456.422 290.905 456.781 290.337 457.381C289.77 457.981 289.454 458.775 289.454 459.601C289.454 460.426 289.77 461.22 290.337 461.82C290.905 462.42 291.68 462.78 292.504 462.826H304.504C305.357 462.82 306.173 462.479 306.776 461.877C307.378 461.274 307.719 460.458 307.724 459.606C307.73 459.181 307.65 458.759 307.49 458.366C307.331 457.972 307.094 457.614 306.794 457.313C306.494 457.012 306.137 456.775 305.744 456.613C305.351 456.452 304.929 456.372 304.504 456.376Z" fill="#998778"/>
<path d="M299.824 390.096V381.196C299.796 380.869 299.646 380.565 299.404 380.344C299.163 380.123 298.847 380 298.519 380C298.192 380 297.876 380.123 297.634 380.344C297.393 380.565 297.243 380.869 297.214 381.196V390.096C297.227 390.438 297.369 390.763 297.613 391.004C297.856 391.246 298.182 391.386 298.524 391.396C298.696 391.398 298.866 391.367 299.025 391.302C299.184 391.238 299.328 391.142 299.45 391.021C299.571 390.9 299.667 390.755 299.731 390.596C299.795 390.437 299.827 390.267 299.824 390.096Z" fill="#998778"/>
<path d="M320.235 386.446C320.1 386.346 319.947 386.275 319.784 386.236C319.622 386.198 319.453 386.193 319.288 386.222C319.123 386.251 318.966 386.313 318.826 386.405C318.686 386.497 318.567 386.616 318.475 386.756L313.565 394.126C313.424 394.316 313.339 394.541 313.317 394.777C313.295 395.012 313.338 395.249 313.441 395.462C313.544 395.675 313.703 395.856 313.901 395.985C314.099 396.114 314.328 396.187 314.565 396.196C314.784 396.198 314.999 396.141 315.189 396.032C315.379 395.923 315.536 395.766 315.645 395.576L320.555 388.216C320.661 388.083 320.737 387.929 320.779 387.764C320.821 387.6 320.828 387.428 320.798 387.261C320.769 387.094 320.704 386.934 320.609 386.794C320.514 386.653 320.389 386.535 320.245 386.446" fill="#998778"/>
<path d="M282.944 395.926C283.192 395.918 283.432 395.838 283.634 395.696C283.928 395.502 284.133 395.2 284.206 394.856C284.279 394.511 284.214 394.152 284.024 393.856L279.264 386.446C279.173 386.291 279.05 386.156 278.905 386.05C278.76 385.944 278.595 385.868 278.42 385.828C278.244 385.787 278.063 385.783 277.885 385.814C277.708 385.846 277.54 385.913 277.389 386.012C277.239 386.111 277.11 386.239 277.011 386.389C276.912 386.54 276.844 386.708 276.812 386.885C276.779 387.062 276.783 387.244 276.823 387.419C276.863 387.595 276.939 387.76 277.044 387.906L281.794 395.346C281.913 395.542 282.083 395.702 282.285 395.809C282.488 395.917 282.715 395.967 282.944 395.956" fill="#998778"/>
<path d="M264.695 402.136L272.435 406.356C272.63 406.445 272.84 406.499 273.055 406.516C273.292 406.521 273.526 406.458 273.729 406.336C273.932 406.214 274.097 406.037 274.205 405.826C274.357 405.517 274.386 405.162 274.285 404.834C274.185 404.505 273.963 404.226 273.665 404.056L265.945 399.836C265.637 399.689 265.285 399.663 264.959 399.763C264.633 399.863 264.357 400.081 264.185 400.376C264.092 400.524 264.033 400.69 264.01 400.863C263.988 401.036 264.002 401.212 264.054 401.379C264.105 401.545 264.191 401.699 264.307 401.83C264.423 401.961 264.565 402.065 264.725 402.136" fill="#998778"/>
<path d="M323.995 406.516C324.208 406.51 324.416 406.456 324.605 406.356L332.435 402.136C332.74 401.973 332.967 401.695 333.068 401.364C333.168 401.033 333.133 400.676 332.97 400.371C332.806 400.066 332.529 399.838 332.198 399.738C331.867 399.637 331.51 399.673 331.205 399.836L323.375 404.056C323.078 404.228 322.858 404.507 322.759 404.836C322.661 405.165 322.691 405.519 322.845 405.826C322.952 406.037 323.117 406.214 323.32 406.336C323.524 406.458 323.757 406.521 323.995 406.516Z" fill="#998778"/>
</svg>
